ghdl/axi4-to-axis/wave.vcd
$date
  Thu May 04 16:43:42 2023
$end
$version
  GHDL v0
$end
$timescale
  1 fs
$end
$scope module standard $end
$upscope $end
$scope module std_logic_1164 $end
$upscope $end
$scope module numeric_std $end
$upscope $end
$scope module tb_axis $end
$var reg 1 ! sim_start_write $end
$var reg 1 " sim_start_ready $end
$var reg 1 # sim_valid_data $end
$var reg 8 $ sim_data[7:0] $end
$var reg 1 % o_axis_tvalid $end
$var reg 8 & o_axis_tdata[7:0] $end
$var reg 1 ' o_axis_tstrb[0:0] $end
$var reg 1 ( o_axis_tlast $end
$var reg 1 ) i_axis_tready $end
$var reg 1 * clk $end
$var reg 1 + rst_n $end
$var reg 3 , o_axi_awid[2:0] $end
$var reg 8 - o_axi_awaddr[7:0] $end
$var reg 8 . o_axi_awlen[7:0] $end
$var reg 3 / o_axi_awsize[2:0] $end
$var reg 2 0 o_axi_awburst[1:0] $end
$var reg 1 1 o_axi_awlock $end
$var reg 4 2 o_axi_awcache[3:0] $end
$var reg 3 3 o_axi_awprot[2:0] $end
$var reg 4 4 o_axi_awqos[3:0] $end
$var reg 4 5 o_axi_awregion[3:0] $end
$comment o_axi_awuser is not handled $end
$var reg 1 6 o_axi_awvalid $end
$var reg 1 7 i_axi_awready $end
$var reg 8 8 o_axi_wdata[7:0] $end
$var reg 1 9 o_axi_wstrb[0:0] $end
$var reg 1 : o_axi_wlast $end
$comment o_axi_wuser is not handled $end
$var reg 1 ; o_axi_wvalid $end
$var reg 1 < i_axi_wready $end
$var reg 3 = i_axi_bid[2:0] $end
$var reg 2 > i_axi_bresp[1:0] $end
$comment i_axi_buser is not handled $end
$var reg 1 ? i_axi_bvalid $end
$var reg 1 @ o_axi_bready $end
$var reg 3 A o_axi_arid[2:0] $end
$var reg 8 B o_axi_araddr[7:0] $end
$var reg 8 C o_axi_arlen[7:0] $end
$var reg 3 D o_axi_arsize[2:0] $end
$var reg 2 E o_axi_arburst[1:0] $end
$var reg 1 F o_axi_arlock $end
$var reg 4 G o_axi_arcache[3:0] $end
$var reg 3 H o_axi_arprot[2:0] $end
$var reg 4 I o_axi_arqos[3:0] $end
$var reg 4 J o_axi_arregion[3:0] $end
$comment o_axi_aruser is not handled $end
$var reg 1 K o_axi_arvalid $end
$var reg 1 L i_axi_arready $end
$var reg 3 M i_axi_rid[2:0] $end
$var reg 8 N i_axi_rdata[7:0] $end
$var reg 2 O i_axi_rresp[1:0] $end
$var reg 1 P i_axi_rlast $end
$comment i_axi_ruser is not handled $end
$var reg 1 Q i_axi_rvalid $end
$var reg 1 R o_axi_rready $end
$var reg 8 S clk_count[7:0] $end
$var reg 8 T outstanding_xfers[7:0] $end
$scope module axi_converter_inst $end
$var reg 1 U axis_aclk $end
$var reg 1 V axis_aresetn $end
$var reg 3 W s_axi_awid[2:0] $end
$var reg 8 X s_axi_awaddr[7:0] $end
$var reg 8 Y s_axi_awlen[7:0] $end
$var reg 3 Z s_axi_awsize[2:0] $end
$var reg 2 [ s_axi_awburst[1:0] $end
$var reg 1 \ s_axi_awlock $end
$var reg 4 ] s_axi_awcache[3:0] $end
$var reg 3 ^ s_axi_awprot[2:0] $end
$var reg 4 _ s_axi_awqos[3:0] $end
$var reg 4 ` s_axi_awregion[3:0] $end
$comment s_axi_awuser is not handled $end
$var reg 1 a s_axi_awvalid $end
$var reg 1 b s_axi_awready $end
$var reg 8 c s_axi_wdata[7:0] $end
$var reg 1 d s_axi_wstrb[0:0] $end
$var reg 1 e s_axi_wlast $end
$comment s_axi_wuser is not handled $end
$var reg 1 f s_axi_wvalid $end
$var reg 1 g s_axi_wready $end
$var reg 3 h s_axi_bid[2:0] $end
$var reg 2 i s_axi_bresp[1:0] $end
$comment s_axi_buser is not handled $end
$var reg 1 j s_axi_bvalid $end
$var reg 1 k s_axi_bready $end
$var reg 3 l s_axi_arid[2:0] $end
$var reg 8 m s_axi_araddr[7:0] $end
$var reg 8 n s_axi_arlen[7:0] $end
$var reg 3 o s_axi_arsize[2:0] $end
$var reg 2 p s_axi_arburst[1:0] $end
$var reg 1 q s_axi_arlock $end
$var reg 4 r s_axi_arcache[3:0] $end
$var reg 3 s s_axi_arprot[2:0] $end
$var reg 4 t s_axi_arqos[3:0] $end
$var reg 4 u s_axi_arregion[3:0] $end
$comment s_axi_aruser is not handled $end
$var reg 1 v s_axi_arvalid $end
$var reg 1 w s_axi_arready $end
$var reg 3 x s_axi_rid[2:0] $end
$var reg 8 y s_axi_rdata[7:0] $end
$var reg 2 z s_axi_rresp[1:0] $end
$var reg 1 { s_axi_rlast $end
$comment s_axi_ruser is not handled $end
$var reg 1 | s_axi_rvalid $end
$var reg 1 } s_axi_rready $end
$var reg 1 !" m_axis_tvalid $end
$var reg 8 "" m_axis_tdata[7:0] $end
$var reg 1 #" m_axis_tstrb[0:0] $end
$var reg 1 $" m_axis_tlast $end
$var reg 1 %" m_axis_tready $end
$comment state_axi_rx is not handled $end
$var reg 1 &" aclk $end
$var reg 1 '" aresetn $end
$var reg 1 (" i_s_axis_tvalid $end
$var reg 8 )" i_s_axis_tdata[7:0] $end
$var reg 9 *" i_s_axis_data_strb[8:0] $end
$var reg 1 +" i_s_axis_tstrb[0:0] $end
$var reg 1 ," i_s_axis_tlast $end
$var reg 1 -" o_s_axis_tready $end
$var reg 1 ." o_m_axis_tvalid $end
$var reg 8 /" o_m_axis_tdata[7:0] $end
$var reg 9 0" o_m_axis_data_strb[8:0] $end
$var reg 1 1" o_m_axis_tstrb[0:0] $end
$var reg 1 2" o_m_axis_tlast $end
$var reg 1 3" i_m_axis_tready $end
$var reg 3 4" temp_bid[2:0] $end
$var reg 1 5" bresp_pending $end
$var reg 2 6" debug_state[1:0] $end
$var reg 3 7" i_axi_awid[2:0] $end
$var reg 8 8" i_axi_awaddr[7:0] $end
$var reg 8 9" i_axi_awlen[7:0] $end
$var reg 3 :" i_axi_awsize[2:0] $end
$var reg 2 ;" i_axi_awburst[1:0] $end
$var reg 1 <" i_axi_awlock $end
$var reg 4 =" i_axi_awcache[3:0] $end
$var reg 3 >" i_axi_awprot[2:0] $end
$var reg 4 ?" i_axi_awqos[3:0] $end
$var reg 4 @" i_axi_awregion[3:0] $end
$comment i_axi_awuser is not handled $end
$var reg 1 A" i_axi_awvalid $end
$var reg 1 B" o_axi_awready $end
$var reg 8 C" i_axi_wdata[7:0] $end
$var reg 1 D" i_axi_wstrb[0:0] $end
$var reg 1 E" i_axi_wlast $end
$comment i_axi_wuser is not handled $end
$var reg 1 F" i_axi_wvalid $end
$var reg 1 G" o_axi_wready $end
$var reg 3 H" o_axi_bid[2:0] $end
$var reg 2 I" o_axi_bresp[1:0] $end
$comment o_axi_buser is not handled $end
$var reg 1 J" o_axi_bvalid $end
$var reg 1 K" i_axi_bready $end
$var reg 3 L" i_axi_arid[2:0] $end
$var reg 8 M" i_axi_araddr[7:0] $end
$var reg 8 N" i_axi_arlen[7:0] $end
$var reg 3 O" i_axi_arsize[2:0] $end
$var reg 2 P" i_axi_arburst[1:0] $end
$var reg 1 Q" i_axi_arlock $end
$var reg 4 R" i_axi_arcache[3:0] $end
$var reg 3 S" i_axi_arprot[2:0] $end
$var reg 4 T" i_axi_arqos[3:0] $end
$var reg 4 U" i_axi_arregion[3:0] $end
$comment i_axi_aruser is not handled $end
$var reg 1 V" i_axi_arvalid $end
$var reg 1 W" o_axi_arready $end
$var reg 3 X" o_axi_rid[2:0] $end
$var reg 8 Y" o_axi_rdata[7:0] $end
$var reg 2 Z" o_axi_rresp[1:0] $end
$var reg 1 [" o_axi_rlast $end
$comment o_axi_ruser is not handled $end
$var reg 1 \" o_axi_rvalid $end
$var reg 1 ]" i_axi_rready $end
$scope module skidbuffer_inst $end
$var reg 1 ^" clock $end
$var reg 1 _" reset_n $end
$var reg 1 `" s_valid_i $end
$var reg 1 a" s_last_i $end
$var reg 1 b" s_ready_o $end
$var reg 9 c" s_data_i[8:0] $end
$var reg 1 d" m_valid_o $end
$var reg 1 e" m_last_o $end
$var reg 1 f" m_ready_i $end
$var reg 9 g" m_data_o[8:0] $end
$var reg 9 h" reg_data[8:0] $end
$var reg 1 i" reg_last $end
$var reg 1 j" reg_valid $end
$var reg 1 k" reg_ready $end
$var reg 9 l" skd_data[8:0] $end
$var reg 1 m" skd_last $end
$var reg 9 n" out_data[8:0] $end
$var reg 1 o" out_last $end
$scope module gen_data_register $end
$upscope $end
$upscope $end
$upscope $end
$upscope $end
$enddefinitions $end
#0
0!
0"
0#
bUUUUUUUU $
U%
bUUUUUUUU &
bU '
U(
0)
1*
0+
bUUU ,
bUUUUUUUU -
bUUUUUUUU .
bUUU /
bUU 0
U1
bUUUU 2
bUUU 3
bUUUU 4
bUUUU 5
U6
U7
bUUUUUUUU 8
bU 9
U:
U;
U<
bUUU =
bUU >
U?
U@
bUUU A
bUUUUUUUU B
bUUUUUUUU C
bUUU D
bUU E
UF
bUUUU G
bUUU H
bUUUU I
bUUUU J
UK
UL
bUUU M
bUUUUUUUU N
bUU O
UP
UQ
UR
b00000000 S
b00000000 T
1U
0V
bUUU W
bUUUUUUUU X
bUUUUUUUU Y
bUUU Z
bUU [
U\
bUUUU ]
bUUU ^
bUUUU _
bUUUU `
Ua
Ub
bUUUUUUUU c
bU d
Ue
Uf
Ug
bUUU h
bUU i
Uj
Uk
bUUU l
bUUUUUUUU m
bUUUUUUUU n
bUUU o
bUU p
Uq
bUUUU r
bUUU s
bUUUU t
bUUUU u
Uv
Uw
bUUU x
bUUUUUUUU y
bUU z
U{
U|
U}
U!"
bUUUUUUUU ""
bU #"
U$"
0%"
1&"
0'"
U("
bUUUUUUUU )"
bUUUUUUUUU *"
bU +"
U,"
U-"
U."
bUUUUUUUU /"
bUUUUUUUUU 0"
bU 1"
U2"
03"
bUUU 4"
U5"
bUU 6"
bUUU 7"
bUUUUUUUU 8"
bUUUUUUUU 9"
bUUU :"
bUU ;"
U<"
bUUUU ="
bUUU >"
bUUUU ?"
bUUUU @"
UA"
UB"
bUUUUUUUU C"
bU D"
UE"
UF"
UG"
bUUU H"
bUU I"
UJ"
UK"
bUUU L"
bUUUUUUUU M"
bUUUUUUUU N"
bUUU O"
bUU P"
UQ"
bUUUU R"
bUUU S"
bUUUU T"
bUUUU U"
UV"
UW"
bUUU X"
bUUUUUUUU Y"
bUU Z"
U["
U\"
U]"
1^"
0_"
U`"
Ua"
Ub"
bUUUUUUUUU c"
Ud"
Ue"
0f"
bUUUUUUUUU g"
bUUUUUUUUU h"
Ui"
Uj"
Uk"
bUUUUUUUUU l"
Um"
bUUUUUUUUU n"
Uo"
#2500000
0*
0U
0&"
0^"
#5000000
b00000000 $
0%
b00000000 &
b0 '
0(
1*
b000 ,
b00000000 -
b00000000 .
b000 /
b00 0
01
b0000 2
b000 3
b0000 4
b0000 5
06
17
b00000000 8
b0 9
0:
0;
0<
b000 =
b00 >
0?
1@
b00000001 S
1U
b000 W
b00000000 X
b00000000 Y
b000 Z
b00 [
0\
b0000 ]
b000 ^
b0000 _
b0000 `
0a
1b
b00000000 c
b0 d
0e
0f
0g
b000 h
b00 i
0j
1k
0!"
b00000000 ""
b0 #"
0$"
1&"
0("
b00000000 )"
b000000000 *"
b0 +"
0,"
0-"
0."
b00000000 /"
b000000000 0"
b0 1"
02"
05"
b00 6"
b000 7"
b00000000 8"
b00000000 9"
b000 :"
b00 ;"
0<"
b0000 ="
b000 >"
b0000 ?"
b0000 @"
0A"
1B"
b00000000 C"
b0 D"
0E"
0F"
0G"
b000 H"
b00 I"
0J"
1K"
1^"
0`"
0a"
0b"
b000000000 c"
0d"
0e"
b000000000 g"
b000000000 h"
0i"
0j"
0k"
b000000000 l"
0m"
b000000000 n"
0o"
#6250000
1+
1V
1'"
1_"
#7500000
0*
0U
0&"
0^"
#10000000
1"
1*
b00000010 S
1U
1&"
b01 6"
1^"
#12500000
0*
0U
0&"
0^"
#15000000
1!
1)
1*
b00000011 S
b00000001 T
1U
1%"
1&"
13"
1^"
1f"
#17500000
0*
0U
0&"
0^"
#20000000
1*
b101 ,
b01000010 -
b00111111 .
b110 /
b01 0
16
1<
b00000100 S
1U
b101 W
b01000010 X
b00111111 Y
b110 Z
b01 [
1a
1g
1&"
1-"
b101 7"
b01000010 8"
b00111111 9"
b110 :"
b01 ;"
1A"
1G"
1^"
1b"
1k"
#22500000
0*
0U
0&"
0^"
#25000000
0!
1#
b00000001 $
1*
b000 ,
b00000000 -
b00000000 .
b000 /
b00 0
06
07
b00000001 8
b1 9
1;
b101 =
b00000101 S
1U
b000 W
b00000000 X
b00000000 Y
b000 Z
b00 [
0a
0b
b00000001 c
b1 d
1f
b101 h
1&"
1("
b00000001 )"
b000000011 *"
b1 +"
b000 7"
b00000000 8"
b00000000 9"
b000 :"
b00 ;"
0A"
0B"
b00000001 C"
b1 D"
1F"
b101 H"
1^"
1`"
b000000011 c"
#27500000
0*
0U
0&"
0^"
#30000000
b00000010 $
1%
b00000001 &
b1 '
1*
17
b00000010 8
b00000110 S
1U
1b
b00000010 c
1!"
b00000001 ""
b1 #"
1&"
b00000010 )"
b000000101 *"
1."
b00000001 /"
b000000011 0"
b1 1"
b10 6"
1B"
b00000010 C"
1^"
b000000101 c"
1d"
b000000011 g"
b000000011 h"
1j"
b000000011 l"
b000000011 n"
#32500000
0*
0U
0&"
0^"
#35000000
b00000011 $
b00000010 &
1*
b00000011 8
b00000111 S
1U
b00000011 c
b00000010 ""
1&"
b00000011 )"
b000000111 *"
b00000010 /"
b000000101 0"
b00000011 C"
1^"
b000000111 c"
b000000101 g"
b000000101 h"
b000000101 l"
b000000101 n"
#37500000
0*
0U
0&"
0^"
#40000000
b00000100 $
b00000011 &
1*
b00000100 8
b00001000 S
1U
b00000100 c
b00000011 ""
1&"
b00000100 )"
b000001001 *"
b00000011 /"
b000000111 0"
b00000100 C"
1^"
b000001001 c"
b000000111 g"
b000000111 h"
b000000111 l"
b000000111 n"
#42500000
0*
0U
0&"
0^"
#45000000
b00000101 $
b00000100 &
1*
b00000101 8
b00001001 S
1U
b00000101 c
b00000100 ""
1&"
b00000101 )"
b000001011 *"
b00000100 /"
b000001001 0"
b00000101 C"
1^"
b000001011 c"
b000001001 g"
b000001001 h"
b000001001 l"
b000001001 n"
#47500000
0*
0U
0&"
0^"
#50000000
b00000110 $
b00000101 &
1*
b00000110 8
b00001010 S
1U
b00000110 c
b00000101 ""
1&"
b00000110 )"
b000001101 *"
b00000101 /"
b000001011 0"
b00000110 C"
1^"
b000001101 c"
b000001011 g"
b000001011 h"
b000001011 l"
b000001011 n"
#52500000
0*
0U
0&"
0^"
#55000000
b00000111 $
b00000110 &
1*
b00000111 8
b00001011 S
1U
b00000111 c
b00000110 ""
1&"
b00000111 )"
b000001111 *"
b00000110 /"
b000001101 0"
b00000111 C"
1^"
b000001111 c"
b000001101 g"
b000001101 h"
b000001101 l"
b000001101 n"
#57500000
0*
0U
0&"
0^"
#60000000
b00001000 $
b00000111 &
1*
b00001000 8
b00001100 S
1U
b00001000 c
b00000111 ""
1&"
b00001000 )"
b000010001 *"
b00000111 /"
b000001111 0"
b00001000 C"
1^"
b000010001 c"
b000001111 g"
b000001111 h"
b000001111 l"
b000001111 n"
#62500000
0*
0U
0&"
0^"
#65000000
b00001001 $
b00001000 &
1*
b00001001 8
b00001101 S
1U
b00001001 c
b00001000 ""
1&"
b00001001 )"
b000010011 *"
b00001000 /"
b000010001 0"
b00001001 C"
1^"
b000010011 c"
b000010001 g"
b000010001 h"
b000010001 l"
b000010001 n"
#67500000
0*
0U
0&"
0^"
#70000000
b00001010 $
b00001001 &
1*
b00001010 8
b00001110 S
1U
b00001010 c
b00001001 ""
1&"
b00001010 )"
b000010101 *"
b00001001 /"
b000010011 0"
b00001010 C"
1^"
b000010101 c"
b000010011 g"
b000010011 h"
b000010011 l"
b000010011 n"
#72500000
0*
0U
0&"
0^"
#75000000
b00001011 $
b00001010 &
1*
b00001011 8
b00001111 S
1U
b00001011 c
b00001010 ""
1&"
b00001011 )"
b000010111 *"
b00001010 /"
b000010101 0"
b00001011 C"
1^"
b000010111 c"
b000010101 g"
b000010101 h"
b000010101 l"
b000010101 n"
#77500000
0*
0U
0&"
0^"
#80000000
b00001100 $
b00001011 &
1*
b00001100 8
b00010000 S
1U
b00001100 c
b00001011 ""
1&"
b00001100 )"
b000011001 *"
b00001011 /"
b000010111 0"
b00001100 C"
1^"
b000011001 c"
b000010111 g"
b000010111 h"
b000010111 l"
b000010111 n"
#82500000
0*
0U
0&"
0^"
#85000000
b00001101 $
b00001100 &
1*
b00001101 8
b00010001 S
1U
b00001101 c
b00001100 ""
1&"
b00001101 )"
b000011011 *"
b00001100 /"
b000011001 0"
b00001101 C"
1^"
b000011011 c"
b000011001 g"
b000011001 h"
b000011001 l"
b000011001 n"
#87500000
0*
0U
0&"
0^"
#90000000
b00001110 $
b00001101 &
1*
b00001110 8
b00010010 S
1U
b00001110 c
b00001101 ""
1&"
b00001110 )"
b000011101 *"
b00001101 /"
b000011011 0"
b00001110 C"
1^"
b000011101 c"
b000011011 g"
b000011011 h"
b000011011 l"
b000011011 n"
#92500000
0*
0U
0&"
0^"
#95000000
b00001111 $
b00001110 &
1*
b00001111 8
b00010011 S
1U
b00001111 c
b00001110 ""
1&"
b00001111 )"
b000011111 *"
b00001110 /"
b000011101 0"
b00001111 C"
1^"
b000011111 c"
b000011101 g"
b000011101 h"
b000011101 l"
b000011101 n"
#97500000
0*
0U
0&"
0^"
#100000000
1!
b00010000 $
b00001111 &
1*
b00010000 8
1:
b00010100 S
b00000010 T
1U
b00010000 c
1e
b00001111 ""
1&"
b00010000 )"
b000100001 *"
1,"
b00001111 /"
b000011111 0"
b00010000 C"
1E"
1^"
1a"
b000100001 c"
b000011111 g"
b000011111 h"
b000011111 l"
b000011111 n"
#102500000
0*
0U
0&"
0^"
#105000000
b00000001 $
b00010000 &
1(
1*
b101 ,
b01000010 -
b00111111 .
b110 /
b01 0
16
b00000001 8
0:
b00010101 S
b00000001 T
1U
b101 W
b01000010 X
b00111111 Y
b110 Z
b01 [
1a
b00000001 c
0e
b00010000 ""
1$"
1&"
b00000001 )"
b000000011 *"
0,"
b00010000 /"
b000100001 0"
12"
b101 7"
b01000010 8"
b00111111 9"
b110 :"
b01 ;"
1A"
b00000001 C"
0E"
1^"
0a"
b000000011 c"
1e"
b000100001 g"
b000100001 h"
1i"
b000100001 l"
1m"
b000100001 n"
1o"
#107500000
0*
0U
0&"
0^"
#110000000
0!
b00000010 $
b00000001 &
0(
1*
b000 ,
b00000000 -
b00000000 .
b000 /
b00 0
06
07
b00000010 8
b00010110 S
1U
b000 W
b00000000 X
b00000000 Y
b000 Z
b00 [
0a
0b
b00000010 c
b00000001 ""
0$"
1&"
b00000010 )"
b000000101 *"
b00000001 /"
b000000011 0"
02"
b101 4"
15"
b000 7"
b00000000 8"
b00000000 9"
b000 :"
b00 ;"
0A"
0B"
b00000010 C"
1^"
b000000101 c"
0e"
b000000011 g"
b000000011 h"
0i"
b000000011 l"
0m"
b000000011 n"
0o"
#112500000
0*
0U
0&"
0^"
#115000000
b00000011 $
b00000010 &
1*
17
b00000011 8
1?
b00010111 S
1U
1b
b00000011 c
1j
b00000010 ""
1&"
b00000011 )"
b000000111 *"
b00000010 /"
b000000101 0"
05"
b11 6"
1B"
b00000011 C"
1J"
1^"
b000000111 c"
b000000101 g"
b000000101 h"
b000000101 l"
b000000101 n"
#117500000
0*
0U
0&"
0^"
#120000000
b00000100 $
b00000011 &
1*
b00000100 8
0?
0@
b00011000 S
1U
b00000100 c
0j
0k
b00000011 ""
1&"
b00000100 )"
b000001001 *"
b00000011 /"
b000000111 0"
b10 6"
b00000100 C"
0J"
0K"
1^"
b000001001 c"
b000000111 g"
b000000111 h"
b000000111 l"
b000000111 n"
#122500000
0*
0U
0&"
0^"
#125000000
b00000101 $
b00000100 &
1*
b00000101 8
1@
b00011001 S
1U
b00000101 c
1k
b00000100 ""
1&"
b00000101 )"
b000001011 *"
b00000100 /"
b000001001 0"
b00000101 C"
1K"
1^"
b000001011 c"
b000001001 g"
b000001001 h"
b000001001 l"
b000001001 n"
#127500000
0*
0U
0&"
0^"
#130000000
b00000110 $
b00000101 &
1*
b00000110 8
b00011010 S
1U
b00000110 c
b00000101 ""
1&"
b00000110 )"
b000001101 *"
b00000101 /"
b000001011 0"
b00000110 C"
1^"
b000001101 c"
b000001011 g"
b000001011 h"
b000001011 l"
b000001011 n"
#132500000
0*
0U
0&"
0^"
#135000000
b00000111 $
b00000110 &
1*
b00000111 8
b00011011 S
1U
b00000111 c
b00000110 ""
1&"
b00000111 )"
b000001111 *"
b00000110 /"
b000001101 0"
b00000111 C"
1^"
b000001111 c"
b000001101 g"
b000001101 h"
b000001101 l"
b000001101 n"
#137500000
0*
0U
0&"
0^"
#140000000
b00001000 $
b00000111 &
1*
b00001000 8
b00011100 S
1U
b00001000 c
b00000111 ""
1&"
b00001000 )"
b000010001 *"
b00000111 /"
b000001111 0"
b00001000 C"
1^"
b000010001 c"
b000001111 g"
b000001111 h"
b000001111 l"
b000001111 n"
#142500000
0*
0U
0&"
0^"
#145000000
b00001001 $
b00001000 &
1*
b00001001 8
b00011101 S
1U
b00001001 c
b00001000 ""
1&"
b00001001 )"
b000010011 *"
b00001000 /"
b000010001 0"
b00001001 C"
1^"
b000010011 c"
b000010001 g"
b000010001 h"
b000010001 l"
b000010001 n"
#147500000
0*
0U
0&"
0^"
#150000000
b00001010 $
b00001001 &
1*
b00001010 8
b00011110 S
1U
b00001010 c
b00001001 ""
1&"
b00001010 )"
b000010101 *"
b00001001 /"
b000010011 0"
b00001010 C"
1^"
b000010101 c"
b000010011 g"
b000010011 h"
b000010011 l"
b000010011 n"
#152500000
0*
0U
0&"
0^"
#155000000
b00001011 $
b00001010 &
1*
b00001011 8
b00011111 S
1U
b00001011 c
b00001010 ""
1&"
b00001011 )"
b000010111 *"
b00001010 /"
b000010101 0"
b00001011 C"
1^"
b000010111 c"
b000010101 g"
b000010101 h"
b000010101 l"
b000010101 n"
#157500000
0*
0U
0&"
0^"
#160000000
b00001100 $
b00001011 &
1*
b00001100 8
b00100000 S
1U
b00001100 c
b00001011 ""
1&"
b00001100 )"
b000011001 *"
b00001011 /"
b000010111 0"
b00001100 C"
1^"
b000011001 c"
b000010111 g"
b000010111 h"
b000010111 l"
b000010111 n"
#162500000
0*
0U
0&"
0^"
#165000000
b00001101 $
b00001100 &
1*
b00001101 8
b00100001 S
1U
b00001101 c
b00001100 ""
1&"
b00001101 )"
b000011011 *"
b00001100 /"
b000011001 0"
b00001101 C"
1^"
b000011011 c"
b000011001 g"
b000011001 h"
b000011001 l"
b000011001 n"
#167500000
0*
0U
0&"
0^"
#170000000
b00001110 $
b00001101 &
1*
b00001110 8
b00100010 S
1U
b00001110 c
b00001101 ""
1&"
b00001110 )"
b000011101 *"
b00001101 /"
b000011011 0"
b00001110 C"
1^"
b000011101 c"
b000011011 g"
b000011011 h"
b000011011 l"
b000011011 n"
#172500000
0*
0U
0&"
0^"
#175000000
b00001111 $
b00001110 &
1*
b00001111 8
b00100011 S
1U
b00001111 c
b00001110 ""
1&"
b00001111 )"
b000011111 *"
b00001110 /"
b000011101 0"
b00001111 C"
1^"
b000011111 c"
b000011101 g"
b000011101 h"
b000011101 l"
b000011101 n"
#177500000
0*
0U
0&"
0^"
#180000000
b00010000 $
b00001111 &
1*
b00010000 8
1:
b00100100 S
1U
b00010000 c
1e
b00001111 ""
1&"
b00010000 )"
b000100001 *"
1,"
b00001111 /"
b000011111 0"
b00010000 C"
1E"
1^"
1a"
b000100001 c"
b000011111 g"
b000011111 h"
b000011111 l"
b000011111 n"
#182500000
0*
0U
0&"
0^"
#185000000
0#
b00000000 $
b00010000 &
1(
1*
b00000000 8
b0 9
0:
0;
b00100101 S
b00000000 T
1U
b00000000 c
b0 d
0e
0f
b00010000 ""
1$"
1&"
0("
b00000000 )"
b000000000 *"
b0 +"
0,"
b00010000 /"
b000100001 0"
12"
b00000000 C"
b0 D"
0E"
0F"
1^"
0`"
0a"
b000000000 c"
1e"
b000100001 g"
b000100001 h"
1i"
b000100001 l"
1m"
b000100001 n"
1o"
#187500000
0*
0U
0&"
0^"
#190000000
0%
b00000000 &
b0 '
0(
1*
1?
b00100110 S
1U
1j
0!"
b00000000 ""
b0 #"
0$"
1&"
0."
b00000000 /"
b000000000 0"
b0 1"
02"
1J"
1^"
0d"
0e"
b000000000 g"
b000000000 h"
0i"
0j"
b000000000 l"
0m"
b000000000 n"
0o"
#192500000
0*
0U
0&"
0^"
#195000000
1*
0?
0@
b00100111 S
1U
0j
0k
1&"
b01 6"
0J"
0K"
1^"
#197500000
0*
0U
0&"
0^"
#200000000
1*
1@
b00101000 S
1U
1k
1&"
1K"
1^"
#202500000
0*
0U
0&"
0^"
#205000000
1*
b00101001 S
1U
1&"
1^"
#207500000
0*
0U
0&"
0^"
#210000000
1*
b00101010 S
1U
1&"
1^"
#212500000
0*
0U
0&"
0^"
#215000000
1*
b00101011 S
1U
1&"
1^"
#217500000
0*
0U
0&"
0^"
#220000000
1*
b00101100 S
1U
1&"
1^"
#222500000
0*
0U
0&"
0^"
#225000000
1*
b00101101 S
1U
1&"
1^"
#227500000
0*
0U
0&"
0^"
#230000000
1!
1*
b00101110 S
b00000001 T
1U
1&"
1^"
#232500000
0*
0U
0&"
0^"
#235000000
1*
b101 ,
b01000010 -
b00111111 .
b110 /
b01 0
16
b00101111 S
1U
b101 W
b01000010 X
b00111111 Y
b110 Z
b01 [
1a
1&"
b101 7"
b01000010 8"
b00111111 9"
b110 :"
b01 ;"
1A"
1^"
#237500000
0*
0U
0&"
0^"
#240000000
0!
1#
b00000001 $
1*
b000 ,
b00000000 -
b00000000 .
b000 /
b00 0
06
07
b00000001 8
b1 9
1;
b00110000 S
1U
b000 W
b00000000 X
b00000000 Y
b000 Z
b00 [
0a
0b
b00000001 c
b1 d
1f
1&"
1("
b00000001 )"
b000000011 *"
b1 +"
b000 7"
b00000000 8"
b00000000 9"
b000 :"
b00 ;"
0A"
0B"
b00000001 C"
b1 D"
1F"
1^"
1`"
b000000011 c"
#242500000
0*
0U
0&"
0^"
#245000000
b00000010 $
1%
b00000001 &
b1 '
1*
17
b00000010 8
b00110001 S
1U
1b
b00000010 c
1!"
b00000001 ""
b1 #"
1&"
b00000010 )"
b000000101 *"
1."
b00000001 /"
b000000011 0"
b1 1"
b10 6"
1B"
b00000010 C"
1^"
b000000101 c"
1d"
b000000011 g"
b000000011 h"
1j"
b000000011 l"
b000000011 n"
#247500000
0*
0U
0&"
0^"
#250000000
b00000011 $
b00000010 &
1*
b00000011 8
b00110010 S
1U
b00000011 c
b00000010 ""
1&"
b00000011 )"
b000000111 *"
b00000010 /"
b000000101 0"
b00000011 C"
1^"
b000000111 c"
b000000101 g"
b000000101 h"
b000000101 l"
b000000101 n"
#252500000
0*
0U
0&"
0^"
#255000000
b00000100 $
b00000011 &
1*
b00000100 8
b00110011 S
1U
b00000100 c
b00000011 ""
1&"
b00000100 )"
b000001001 *"
b00000011 /"
b000000111 0"
b00000100 C"
1^"
b000001001 c"
b000000111 g"
b000000111 h"
b000000111 l"
b000000111 n"
#257500000
0*
0U
0&"
0^"
#260000000
0"
b00000101 $
b00000100 &
1*
b00000101 8
b00110100 S
1U
b00000101 c
b00000100 ""
1&"
b00000101 )"
b000001011 *"
b00000100 /"
b000001001 0"
b00000101 C"
1^"
b000001011 c"
b000001001 g"
b000001001 h"
b000001001 l"
b000001001 n"
#262500000
0*
0U
0&"
0^"
#265000000
b00000110 $
b00000101 &
0)
1*
b00000110 8
b00110101 S
1U
b00000110 c
b00000101 ""
0%"
1&"
b00000110 )"
b000001101 *"
b00000101 /"
b000001011 0"
03"
b00000110 C"
1^"
b000001101 c"
0f"
b000001011 g"
b000001011 h"
b000001011 l"
b000001011 n"
#267500000
0*
0U
0&"
0^"
#270000000
b00000111 $
1*
b00000111 8
0<
b00110110 S
1U
b00000111 c
0g
1&"
b00000111 )"
b000001111 *"
0-"
b00000111 C"
0G"
1^"
0b"
b000001111 c"
0k"
b000001101 l"
#272500000
0*
0U
0&"
0^"
#275000000
1*
b00110111 S
1U
1&"
1^"
#277500000
0*
0U
0&"
0^"
#280000000
1!
1*
b00111000 S
b00000010 T
1U
1&"
1^"
#282500000
0*
0U
0&"
0^"
#285000000
1*
b101 ,
b01000010 -
b00111111 .
b110 /
b01 0
16
b00111001 S
1U
b101 W
b01000010 X
b00111111 Y
b110 Z
b01 [
1a
1&"
b101 7"
b01000010 8"
b00111111 9"
b110 :"
b01 ;"
1A"
1^"
#287500000
0*
0U
0&"
0^"
#290000000
0!
1*
b000 ,
b00000000 -
b00000000 .
b000 /
b00 0
06
07
b00111010 S
1U
b000 W
b00000000 X
b00000000 Y
b000 Z
b00 [
0a
0b
1&"
b000 7"
b00000000 8"
b00000000 9"
b000 :"
b00 ;"
0A"
0B"
1^"
#292500000
0*
0U
0&"
0^"
#295000000
1*
b00111011 S
1U
1&"
b11 6"
1^"
#297500000
0*
0U
0&"
0^"
#300000000
1*
b00111100 S
1U
1&"
1^"
#302500000
0*
0U
0&"
0^"
#305000000
1*
b00111101 S
1U
1&"
1^"
#307500000
0*
0U
0&"
0^"
#310000000
1*
b00111110 S
1U
1&"
1^"
#312500000
0*
0U
0&"
0^"
#315000000
1*
b00111111 S
1U
1&"
1^"
#317500000
0*
0U
0&"
0^"
#320000000
1*
b01000000 S
1U
1&"
1^"
#322500000
0*
0U
0&"
0^"
#325000000
1*
b01000001 S
1U
1&"
1^"
#327500000
0*
0U
0&"
0^"
#330000000
1*
b01000010 S
1U
1&"
1^"
