ghdl/axi4-to-axis/wave.vcd
$date
  Fri Apr 21 15:21:41 2023
$end
$version
  GHDL v0
$end
$timescale
  1 fs
$end
$scope module standard $end
$upscope $end
$scope module std_logic_1164 $end
$upscope $end
$scope module numeric_std $end
$upscope $end
$scope module tb_axis $end
$var reg 1 ! sim_start_write $end
$var reg 8 " sim_data[7:0] $end
$var reg 1 # sim_valid_data $end
$var reg 1 $ o_axis_tvalid $end
$var reg 8 % o_axis_tdata[7:0] $end
$var reg 1 & o_axis_tstrb[0:0] $end
$var reg 1 ' o_axis_tlast $end
$var reg 1 ( i_axis_tready $end
$var reg 1 ) clk $end
$var reg 1 * rst_n $end
$var reg 3 + o_axi_awid[2:0] $end
$var reg 8 , o_axi_awaddr[7:0] $end
$var reg 8 - o_axi_awlen[7:0] $end
$var reg 3 . o_axi_awsize[2:0] $end
$var reg 2 / o_axi_awburst[1:0] $end
$var reg 1 0 o_axi_awlock $end
$var reg 4 1 o_axi_awcache[3:0] $end
$var reg 3 2 o_axi_awprot[2:0] $end
$var reg 4 3 o_axi_awqos[3:0] $end
$var reg 4 4 o_axi_awregion[3:0] $end
$comment o_axi_awuser is not handled $end
$var reg 1 5 o_axi_awvalid $end
$var reg 1 6 i_axi_awready $end
$var reg 8 7 o_axi_wdata[7:0] $end
$var reg 1 8 o_axi_wstrb[0:0] $end
$var reg 1 9 o_axi_wlast $end
$comment o_axi_wuser is not handled $end
$var reg 1 : o_axi_wvalid $end
$var reg 1 ; i_axi_wready $end
$var reg 3 < i_axi_bid[2:0] $end
$var reg 2 = i_axi_bresp[1:0] $end
$comment i_axi_buser is not handled $end
$var reg 1 > i_axi_bvalid $end
$var reg 1 ? o_axi_bready $end
$var reg 3 @ o_axi_arid[2:0] $end
$var reg 8 A o_axi_araddr[7:0] $end
$var reg 8 B o_axi_arlen[7:0] $end
$var reg 3 C o_axi_arsize[2:0] $end
$var reg 2 D o_axi_arburst[1:0] $end
$var reg 1 E o_axi_arlock $end
$var reg 4 F o_axi_arcache[3:0] $end
$var reg 3 G o_axi_arprot[2:0] $end
$var reg 4 H o_axi_arqos[3:0] $end
$var reg 4 I o_axi_arregion[3:0] $end
$comment o_axi_aruser is not handled $end
$var reg 1 J o_axi_arvalid $end
$var reg 1 K i_axi_arready $end
$var reg 3 L i_axi_rid[2:0] $end
$var reg 8 M i_axi_rdata[7:0] $end
$var reg 2 N i_axi_rresp[1:0] $end
$var reg 1 O i_axi_rlast $end
$comment i_axi_ruser is not handled $end
$var reg 1 P i_axi_rvalid $end
$var reg 1 Q o_axi_rready $end
$var reg 8 R clk_count[7:0] $end
$scope module axi_converter_inst $end
$var reg 1 S axis_aclk $end
$var reg 1 T axis_aresetn $end
$var reg 3 U s_axi_awid[2:0] $end
$var reg 8 V s_axi_awaddr[7:0] $end
$var reg 8 W s_axi_awlen[7:0] $end
$var reg 3 X s_axi_awsize[2:0] $end
$var reg 2 Y s_axi_awburst[1:0] $end
$var reg 1 Z s_axi_awlock $end
$var reg 4 [ s_axi_awcache[3:0] $end
$var reg 3 \ s_axi_awprot[2:0] $end
$var reg 4 ] s_axi_awqos[3:0] $end
$var reg 4 ^ s_axi_awregion[3:0] $end
$comment s_axi_awuser is not handled $end
$var reg 1 _ s_axi_awvalid $end
$var reg 1 ` s_axi_awready $end
$var reg 8 a s_axi_wdata[7:0] $end
$var reg 1 b s_axi_wstrb[0:0] $end
$var reg 1 c s_axi_wlast $end
$comment s_axi_wuser is not handled $end
$var reg 1 d s_axi_wvalid $end
$var reg 1 e s_axi_wready $end
$var reg 3 f s_axi_bid[2:0] $end
$var reg 2 g s_axi_bresp[1:0] $end
$comment s_axi_buser is not handled $end
$var reg 1 h s_axi_bvalid $end
$var reg 1 i s_axi_bready $end
$var reg 3 j s_axi_arid[2:0] $end
$var reg 8 k s_axi_araddr[7:0] $end
$var reg 8 l s_axi_arlen[7:0] $end
$var reg 3 m s_axi_arsize[2:0] $end
$var reg 2 n s_axi_arburst[1:0] $end
$var reg 1 o s_axi_arlock $end
$var reg 4 p s_axi_arcache[3:0] $end
$var reg 3 q s_axi_arprot[2:0] $end
$var reg 4 r s_axi_arqos[3:0] $end
$var reg 4 s s_axi_arregion[3:0] $end
$comment s_axi_aruser is not handled $end
$var reg 1 t s_axi_arvalid $end
$var reg 1 u s_axi_arready $end
$var reg 3 v s_axi_rid[2:0] $end
$var reg 8 w s_axi_rdata[7:0] $end
$var reg 2 x s_axi_rresp[1:0] $end
$var reg 1 y s_axi_rlast $end
$comment s_axi_ruser is not handled $end
$var reg 1 z s_axi_rvalid $end
$var reg 1 { s_axi_rready $end
$var reg 1 | m_axis_tvalid $end
$var reg 8 } m_axis_tdata[7:0] $end
$var reg 1 !" m_axis_tstrb[0:0] $end
$var reg 1 "" m_axis_tlast $end
$var reg 1 #" m_axis_tready $end
$var reg 1 $" aclk $end
$var reg 1 %" aresetn $end
$var reg 1 &" i_s_axis_tvalid $end
$var reg 8 '" i_s_axis_tdata[7:0] $end
$var reg 9 (" i_axis_data_strb[8:0] $end
$var reg 1 )" i_s_axis_tstrb[0:0] $end
$var reg 1 *" i_s_axis_tlast $end
$var reg 1 +" o_s_axis_tready $end
$var reg 1 ," o_m_axis_tvalid $end
$var reg 8 -" o_m_axis_tdata[7:0] $end
$var reg 9 ." o_axis_data_strb[8:0] $end
$var reg 1 /" o_m_axis_tstrb[0:0] $end
$var reg 1 0" o_m_axis_tlast $end
$var reg 1 1" i_m_axis_tready $end
$var reg 2 2" o_s_axi_bresp[1:0] $end
$var reg 1 3" o_s_axi_bvalid $end
$var reg 3 4" o_s_axi_bid[2:0] $end
$var reg 1 5" i_s_axi_bready $end
$var reg 3 6" temp_bid[2:0] $end
$var reg 3 7" i_axi_awid[2:0] $end
$var reg 8 8" i_axi_awaddr[7:0] $end
$var reg 8 9" i_axi_awlen[7:0] $end
$var reg 3 :" i_axi_awsize[2:0] $end
$var reg 2 ;" i_axi_awburst[1:0] $end
$var reg 1 <" i_axi_awlock $end
$var reg 4 =" i_axi_awcache[3:0] $end
$var reg 3 >" i_axi_awprot[2:0] $end
$var reg 4 ?" i_axi_awqos[3:0] $end
$var reg 4 @" i_axi_awregion[3:0] $end
$comment i_axi_awuser is not handled $end
$var reg 1 A" i_axi_awvalid $end
$var reg 1 B" o_axi_awready $end
$var reg 8 C" i_axi_wdata[7:0] $end
$var reg 1 D" i_axi_wstrb[0:0] $end
$var reg 1 E" i_axi_wlast $end
$comment i_axi_wuser is not handled $end
$var reg 1 F" i_axi_wvalid $end
$var reg 1 G" o_axi_wready $end
$var reg 3 H" o_axi_bid[2:0] $end
$var reg 2 I" o_axi_bresp[1:0] $end
$comment o_axi_buser is not handled $end
$var reg 1 J" o_axi_bvalid $end
$var reg 1 K" i_axi_bready $end
$var reg 3 L" i_axi_arid[2:0] $end
$var reg 8 M" i_axi_araddr[7:0] $end
$var reg 8 N" i_axi_arlen[7:0] $end
$var reg 3 O" i_axi_arsize[2:0] $end
$var reg 2 P" i_axi_arburst[1:0] $end
$var reg 1 Q" i_axi_arlock $end
$var reg 4 R" i_axi_arcache[3:0] $end
$var reg 3 S" i_axi_arprot[2:0] $end
$var reg 4 T" i_axi_arqos[3:0] $end
$var reg 4 U" i_axi_arregion[3:0] $end
$comment i_axi_aruser is not handled $end
$var reg 1 V" i_axi_arvalid $end
$var reg 1 W" o_axi_arready $end
$var reg 3 X" o_axi_rid[2:0] $end
$var reg 8 Y" o_axi_rdata[7:0] $end
$var reg 2 Z" o_axi_rresp[1:0] $end
$var reg 1 [" o_axi_rlast $end
$comment o_axi_ruser is not handled $end
$var reg 1 \" o_axi_rvalid $end
$var reg 1 ]" i_axi_rready $end
$scope module skidbuffer_inst $end
$var reg 1 ^" clock $end
$var reg 1 _" reset_n $end
$var reg 1 `" s_valid_i $end
$var reg 1 a" s_last_i $end
$var reg 1 b" s_ready_o $end
$var reg 9 c" s_data_i[8:0] $end
$var reg 1 d" m_valid_o $end
$var reg 1 e" m_last_o $end
$var reg 1 f" m_ready_i $end
$var reg 9 g" m_data_o[8:0] $end
$var reg 9 h" reg_data[8:0] $end
$var reg 1 i" reg_last $end
$var reg 1 j" reg_valid $end
$var reg 1 k" reg_ready $end
$var reg 9 l" skd_data[8:0] $end
$var reg 1 m" skd_last $end
$var reg 9 n" out_data[8:0] $end
$var reg 1 o" out_last $end
$scope module gen_data_register $end
$upscope $end
$upscope $end
$upscope $end
$upscope $end
$enddefinitions $end
#0
0!
bUUUUUUUU "
0#
U$
bUUUUUUUU %
bU &
U'
1(
1)
0*
bUUU +
bUUUUUUUU ,
bUUUUUUUU -
bUUU .
bUU /
U0
bUUUU 1
bUUU 2
bUUUU 3
bUUUU 4
U5
U6
bUUUUUUUU 7
bU 8
U9
U:
U;
bUUU <
bUU =
U>
U?
bUUU @
bUUUUUUUU A
bUUUUUUUU B
bUUU C
bUU D
UE
bUUUU F
bUUU G
bUUUU H
bUUUU I
UJ
UK
bUUU L
bUUUUUUUU M
bUU N
UO
UP
UQ
b00000000 R
1S
0T
bUUU U
bUUUUUUUU V
bUUUUUUUU W
bUUU X
bUU Y
UZ
bUUUU [
bUUU \
bUUUU ]
bUUUU ^
U_
U`
bUUUUUUUU a
bU b
Uc
Ud
Ue
bUUU f
bUU g
Uh
Ui
bUUU j
bUUUUUUUU k
bUUUUUUUU l
bUUU m
bUU n
Uo
bUUUU p
bUUU q
bUUUU r
bUUUU s
Ut
Uu
bUUU v
bUUUUUUUU w
bUU x
Uy
Uz
U{
U|
bUUUUUUUU }
bU !"
U""
1#"
1$"
0%"
U&"
bUUUUUUUU '"
bUUUUUUUUU ("
bU )"
U*"
U+"
U,"
bUUUUUUUU -"
bUUUUUUUUU ."
bU /"
U0"
11"
bUU 2"
U3"
bUUU 4"
U5"
bUUU 6"
bUUU 7"
bUUUUUUUU 8"
bUUUUUUUU 9"
bUUU :"
bUU ;"
U<"
bUUUU ="
bUUU >"
bUUUU ?"
bUUUU @"
UA"
UB"
bUUUUUUUU C"
bU D"
UE"
UF"
UG"
bUUU H"
bUU I"
UJ"
UK"
bUUU L"
bUUUUUUUU M"
bUUUUUUUU N"
bUUU O"
bUU P"
UQ"
bUUUU R"
bUUU S"
bUUUU T"
bUUUU U"
UV"
UW"
bUUU X"
bUUUUUUUU Y"
bUU Z"
U["
U\"
U]"
1^"
0_"
U`"
Ua"
Ub"
bUUUUUUUUU c"
Ud"
Ue"
1f"
bUUUUUUUUU g"
bUUUUUUUUU h"
Ui"
Uj"
Uk"
bUUUUUUUUU l"
Um"
bUUUUUUUUU n"
Uo"
#2500000
0)
0S
0$"
0^"
#5000000
b00000000 "
0$
b00000000 %
b0 &
0'
1)
b000 +
b00000000 ,
b00000000 -
b000 .
b00 /
00
b0000 1
b000 2
b0000 3
b0000 4
05
16
b00000000 7
b0 8
09
b000 <
b00 =
0>
b00000001 R
1S
b000 U
b00000000 V
b00000000 W
b000 X
b00 Y
0Z
b0000 [
b000 \
b0000 ]
b0000 ^
0_
1`
b00000000 a
b0 b
0c
Ue
b000 f
b00 g
0h
0|
b00000000 }
b0 !"
0""
1$"
b00000000 '"
b000000000 ("
b0 )"
0*"
0+"
0,"
b00000000 -"
b000000000 ."
b0 /"
00"
b00 2"
03"
b000 4"
b000 7"
b00000000 8"
b00000000 9"
b000 :"
b00 ;"
0<"
b0000 ="
b000 >"
b0000 ?"
b0000 @"
0A"
1B"
b00000000 C"
b0 D"
0E"
1^"
0a"
0b"
b000000000 c"
0d"
0e"
b000000000 g"
b000000000 h"
0i"
0j"
0k"
b000000000 l"
0m"
b000000000 n"
0o"
#6250000
1*
1T
1%"
1_"
#7500000
0)
0S
0$"
0^"
#10000000
U$
1)
0:
b00000010 R
1S
0d
Ue
U|
1$"
0&"
1+"
U,"
0F"
1^"
0`"
1b"
Ud"
Uj"
1k"
#12500000
0)
0S
0$"
0^"
#15000000
1!
0$
1)
b00000011 R
1S
0|
1$"
0,"
1^"
0d"
0j"
#17500000
0)
0S
0$"
0^"
#20000000
0!
1)
b101 +
b01000010 ,
b00111111 -
b110 .
b01 /
15
b00000100 R
1S
b101 U
b01000010 V
b00111111 W
b110 X
b01 Y
1_
1$"
b101 7"
b01000010 8"
b00111111 9"
b110 :"
b01 ;"
1A"
1^"
#22500000
0)
0S
0$"
0^"
#25000000
1#
1)
b000 +
b00000000 ,
b00000000 -
b000 .
b00 /
05
06
b00000101 R
1S
b000 U
b00000000 V
b00000000 W
b000 X
b00 Y
0_
0`
1$"
b101 6"
b000 7"
b00000000 8"
b00000000 9"
b000 :"
b00 ;"
0A"
0B"
1^"
#27500000
0)
0S
0$"
0^"
#30000000
1)
16
b1 8
1:
b00000110 R
1S
1`
b1 b
1d
1$"
1&"
b000000001 ("
b1 )"
1B"
b1 D"
1F"
1^"
1`"
b000000001 c"
#32500000
0)
0S
0$"
0^"
#35000000
1$
b1 &
1)
b00000111 R
1S
1|
b1 !"
1$"
1,"
b000000001 ."
b1 /"
1^"
1d"
b000000001 g"
b000000001 h"
1j"
b000000001 l"
b000000001 n"
#37500000
0)
0S
0$"
0^"
#40000000
1)
b00001000 R
1S
1$"
1^"
#42500000
0)
0S
0$"
0^"
#45000000
1)
b00001001 R
1S
1$"
1^"
#47500000
0)
0S
0$"
0^"
#50000000
1)
b00001010 R
1S
1$"
1^"
#52500000
0)
0S
0$"
0^"
#55000000
1)
b00001011 R
1S
1$"
1^"
#57500000
0)
0S
0$"
0^"
#60000000
1)
b00001100 R
1S
1$"
1^"
#62500000
0)
0S
0$"
0^"
#65000000
1)
b00001101 R
1S
1$"
1^"
#67500000
0)
0S
0$"
0^"
#70000000
1)
b00001110 R
1S
1$"
1^"
#72500000
0)
0S
0$"
0^"
#75000000
1)
b00001111 R
1S
1$"
1^"
#77500000
0)
0S
0$"
0^"
#80000000
1)
b00010000 R
1S
1$"
1^"
#82500000
0)
0S
0$"
0^"
#85000000
1)
b00010001 R
1S
1$"
1^"
#87500000
0)
0S
0$"
0^"
#90000000
1)
b00010010 R
1S
1$"
1^"
#92500000
0)
0S
0$"
0^"
#95000000
1)
b00010011 R
1S
1$"
1^"
#97500000
0)
0S
0$"
0^"
#100000000
1)
b00010100 R
1S
1$"
1^"
#102500000
0)
0S
0$"
0^"
#105000000
1)
b00010101 R
1S
1$"
1^"
#107500000
0)
0S
0$"
0^"
#110000000
1)
b00010110 R
1S
1$"
1^"
#112500000
0)
0S
0$"
0^"
#115000000
1)
b00010111 R
1S
1$"
1^"
#117500000
0)
0S
0$"
0^"
#120000000
1)
b00011000 R
1S
1$"
1^"
#122500000
0)
0S
0$"
0^"
#125000000
1)
b00011001 R
1S
1$"
1^"
#127500000
0)
0S
0$"
0^"
#130000000
1)
b00011010 R
1S
1$"
1^"
#132500000
0)
0S
0$"
0^"
#135000000
1)
b00011011 R
1S
1$"
1^"
#137500000
0)
0S
0$"
0^"
#140000000
1)
b00011100 R
1S
1$"
1^"
#142500000
0)
0S
0$"
0^"
#145000000
1)
b00011101 R
1S
1$"
1^"
#147500000
0)
0S
0$"
0^"
#150000000
1)
b00011110 R
1S
1$"
1^"
#152500000
0)
0S
0$"
0^"
#155000000
1)
b00011111 R
1S
1$"
1^"
#157500000
0)
0S
0$"
0^"
#160000000
1)
b00100000 R
1S
1$"
1^"
#162500000
0)
0S
0$"
0^"
#165000000
1)
b00100001 R
1S
1$"
1^"
#167500000
0)
0S
0$"
0^"
#170000000
1)
b00100010 R
1S
1$"
1^"
#172500000
0)
0S
0$"
0^"
#175000000
1)
b00100011 R
1S
1$"
1^"
#177500000
0)
0S
0$"
0^"
#180000000
1)
b00100100 R
1S
1$"
1^"
#182500000
0)
0S
0$"
0^"
#185000000
1)
b00100101 R
1S
1$"
1^"
#187500000
0)
0S
0$"
0^"
#190000000
1)
b00100110 R
1S
1$"
1^"
#192500000
0)
0S
0$"
0^"
#195000000
1)
b00100111 R
1S
1$"
1^"
#197500000
0)
0S
0$"
0^"
#200000000
1)
b00101000 R
1S
1$"
1^"
#202500000
0)
0S
0$"
0^"
#205000000
1)
b00101001 R
1S
1$"
1^"
#207500000
0)
0S
0$"
0^"
#210000000
1)
b00101010 R
1S
1$"
1^"
#212500000
0)
0S
0$"
0^"
#215000000
1)
b00101011 R
1S
1$"
1^"
#217500000
0)
0S
0$"
0^"
#220000000
1)
b00101100 R
1S
1$"
1^"
#222500000
0)
0S
0$"
0^"
#225000000
1)
b00101101 R
1S
1$"
1^"
#227500000
0)
0S
0$"
0^"
#230000000
1)
b00101110 R
1S
1$"
1^"
#232500000
0)
0S
0$"
0^"
#235000000
1)
b00101111 R
1S
1$"
1^"
#237500000
0)
0S
0$"
0^"
#240000000
1)
b00110000 R
1S
1$"
1^"
#242500000
0)
0S
0$"
0^"
#245000000
1)
b00110001 R
1S
1$"
1^"
#247500000
0)
0S
0$"
0^"
#250000000
1)
b00110010 R
1S
1$"
1^"
#252500000
0)
0S
0$"
0^"
#255000000
1)
b00110011 R
1S
1$"
1^"
#257500000
0)
0S
0$"
0^"
#260000000
1)
b00110100 R
1S
1$"
1^"
#262500000
0)
0S
0$"
0^"
#265000000
1)
b00110101 R
1S
1$"
1^"
#267500000
0)
0S
0$"
0^"
#270000000
1)
b00110110 R
1S
1$"
1^"
#272500000
0)
0S
0$"
0^"
#275000000
1)
b00110111 R
1S
1$"
1^"
#277500000
0)
0S
0$"
0^"
#280000000
1)
b00111000 R
1S
1$"
1^"
#282500000
0)
0S
0$"
0^"
#285000000
1)
b00111001 R
1S
1$"
1^"
#287500000
0)
0S
0$"
0^"
#290000000
1)
b00111010 R
1S
1$"
1^"
#292500000
0)
0S
0$"
0^"
#295000000
1)
b00111011 R
1S
1$"
1^"
#297500000
0)
0S
0$"
0^"
#300000000
1)
b00111100 R
1S
1$"
1^"
#302500000
0)
0S
0$"
0^"
#305000000
1)
b00111101 R
1S
1$"
1^"
#307500000
0)
0S
0$"
0^"
#310000000
1)
b00111110 R
1S
1$"
1^"
#312500000
0)
0S
0$"
0^"
#315000000
1)
b00111111 R
1S
1$"
1^"
#317500000
0)
0S
0$"
0^"
#320000000
1)
b01000000 R
1S
1$"
1^"
#322500000
0)
0S
0$"
0^"
#325000000
1)
b01000001 R
1S
1$"
1^"
#327500000
0)
0S
0$"
0^"
#330000000
1)
b01000010 R
1S
1$"
1^"
#332500000
0)
0S
0$"
0^"
#335000000
1)
b01000011 R
1S
1$"
1^"
#337500000
0)
0S
0$"
0^"
#340000000
1)
b01000100 R
1S
1$"
1^"
#342500000
0)
0S
0$"
0^"
#345000000
1)
b01000101 R
1S
1$"
1^"
#347500000
0)
0S
0$"
0^"
#350000000
1)
b01000110 R
1S
1$"
1^"
#352500000
0)
0S
0$"
0^"
#355000000
1)
b01000111 R
1S
1$"
1^"
#357500000
0)
0S
0$"
0^"
#360000000
1)
b01001000 R
1S
1$"
1^"
#362500000
0)
0S
0$"
0^"
#365000000
1)
b01001001 R
1S
1$"
1^"
#367500000
0)
0S
0$"
0^"
#370000000
1)
b01001010 R
1S
1$"
1^"
#372500000
0)
0S
0$"
0^"
#375000000
1)
b01001011 R
1S
1$"
1^"
#377500000
0)
0S
0$"
0^"
#380000000
1)
b01001100 R
1S
1$"
1^"
#382500000
0)
0S
0$"
0^"
#385000000
1)
b01001101 R
1S
1$"
1^"
#387500000
0)
0S
0$"
0^"
#390000000
1)
b01001110 R
1S
1$"
1^"
#392500000
0)
0S
0$"
0^"
#395000000
1)
b01001111 R
1S
1$"
1^"
#397500000
0)
0S
0$"
0^"
#400000000
1)
b01010000 R
1S
1$"
1^"
#402500000
0)
0S
0$"
0^"
#405000000
1)
b01010001 R
1S
1$"
1^"
#407500000
0)
0S
0$"
0^"
#410000000
1)
b01010010 R
1S
1$"
1^"
#412500000
0)
0S
0$"
0^"
#415000000
1)
b01010011 R
1S
1$"
1^"
#417500000
0)
0S
0$"
0^"
#420000000
1)
b01010100 R
1S
1$"
1^"
#422500000
0)
0S
0$"
0^"
#425000000
1)
b01010101 R
1S
1$"
1^"
#427500000
0)
0S
0$"
0^"
#430000000
1)
b01010110 R
1S
1$"
1^"
#432500000
0)
0S
0$"
0^"
#435000000
1)
b01010111 R
1S
1$"
1^"
#437500000
0)
0S
0$"
0^"
#440000000
1)
b01011000 R
1S
1$"
1^"
#442500000
0)
0S
0$"
0^"
#445000000
1)
b01011001 R
1S
1$"
1^"
#447500000
0)
0S
0$"
0^"
#450000000
1)
b01011010 R
1S
1$"
1^"
#452500000
0)
0S
0$"
0^"
#455000000
1)
b01011011 R
1S
1$"
1^"
#457500000
0)
0S
0$"
0^"
#460000000
1)
b01011100 R
1S
1$"
1^"
#462500000
0)
0S
0$"
0^"
#465000000
1)
b01011101 R
1S
1$"
1^"
#467500000
0)
0S
0$"
0^"
#470000000
1)
b01011110 R
1S
1$"
1^"
#472500000
0)
0S
0$"
0^"
#475000000
1)
b01011111 R
1S
1$"
1^"
#477500000
0)
0S
0$"
0^"
#480000000
1)
b01100000 R
1S
1$"
1^"
#482500000
0)
0S
0$"
0^"
#485000000
1)
b01100001 R
1S
1$"
1^"
#487500000
0)
0S
0$"
0^"
#490000000
1)
b01100010 R
1S
1$"
1^"
#492500000
0)
0S
0$"
0^"
#495000000
1)
b01100011 R
1S
1$"
1^"
#497500000
0)
0S
0$"
0^"
#500000000
1)
b01100100 R
1S
1$"
1^"
#502500000
0)
0S
0$"
0^"
#505000000
1)
b01100101 R
1S
1$"
1^"
#507500000
0)
0S
0$"
0^"
#510000000
1)
b01100110 R
1S
1$"
1^"
#512500000
0)
0S
0$"
0^"
#515000000
1)
b01100111 R
1S
1$"
1^"
#517500000
0)
0S
0$"
0^"
#520000000
1)
b01101000 R
1S
1$"
1^"
#522500000
0)
0S
0$"
0^"
#525000000
1)
b01101001 R
1S
1$"
1^"
#527500000
0)
0S
0$"
0^"
#530000000
1)
b01101010 R
1S
1$"
1^"
#532500000
0)
0S
0$"
0^"
#535000000
1)
b01101011 R
1S
1$"
1^"
#537500000
0)
0S
0$"
0^"
#540000000
1)
b01101100 R
1S
1$"
1^"
#542500000
0)
0S
0$"
0^"
#545000000
1)
b01101101 R
1S
1$"
1^"
#547500000
0)
0S
0$"
0^"
#550000000
1)
b01101110 R
1S
1$"
1^"
#552500000
0)
0S
0$"
0^"
#555000000
1)
b01101111 R
1S
1$"
1^"
#557500000
0)
0S
0$"
0^"
#560000000
1)
b01110000 R
1S
1$"
1^"
#562500000
0)
0S
0$"
0^"
#565000000
1)
b01110001 R
1S
1$"
1^"
#567500000
0)
0S
0$"
0^"
#570000000
1)
b01110010 R
1S
1$"
1^"
#572500000
0)
0S
0$"
0^"
#575000000
1)
b01110011 R
1S
1$"
1^"
#577500000
0)
0S
0$"
0^"
#580000000
1)
b01110100 R
1S
1$"
1^"
#582500000
0)
0S
0$"
0^"
#585000000
1)
b01110101 R
1S
1$"
1^"
#587500000
0)
0S
0$"
0^"
#590000000
1)
b01110110 R
1S
1$"
1^"
#592500000
0)
0S
0$"
0^"
#595000000
1)
b01110111 R
1S
1$"
1^"
#597500000
0)
0S
0$"
0^"
#600000000
1)
b01111000 R
1S
1$"
1^"
#602500000
0)
0S
0$"
0^"
#605000000
1)
b01111001 R
1S
1$"
1^"
#607500000
0)
0S
0$"
0^"
#610000000
1)
b01111010 R
1S
1$"
1^"
#612500000
0)
0S
0$"
0^"
#615000000
1)
b01111011 R
1S
1$"
1^"
#617500000
0)
0S
0$"
0^"
#620000000
1)
b01111100 R
1S
1$"
1^"
#622500000
0)
0S
0$"
0^"
#625000000
1)
b01111101 R
1S
1$"
1^"
#627500000
0)
0S
0$"
0^"
#630000000
1)
b01111110 R
1S
1$"
1^"
#632500000
0)
0S
0$"
0^"
#635000000
1)
b01111111 R
1S
1$"
1^"
#637500000
0)
0S
0$"
0^"
#640000000
1)
b10000000 R
1S
1$"
1^"
#642500000
0)
0S
0$"
0^"
#645000000
1)
b10000001 R
1S
1$"
1^"
#647500000
0)
0S
0$"
0^"
#650000000
1)
b10000010 R
1S
1$"
1^"
#652500000
0)
0S
0$"
0^"
#655000000
1)
b10000011 R
1S
1$"
1^"
#657500000
0)
0S
0$"
0^"
#660000000
1)
b10000100 R
1S
1$"
1^"
#662500000
0)
0S
0$"
0^"
#665000000
1)
b10000101 R
1S
1$"
1^"
#667500000
0)
0S
0$"
0^"
#670000000
1)
b10000110 R
1S
1$"
1^"
#672500000
0)
0S
0$"
0^"
#675000000
1)
b10000111 R
1S
1$"
1^"
#677500000
0)
0S
0$"
0^"
#680000000
1)
b10001000 R
1S
1$"
1^"
#682500000
0)
0S
0$"
0^"
#685000000
1)
b10001001 R
1S
1$"
1^"
#687500000
0)
0S
0$"
0^"
#690000000
1)
b10001010 R
1S
1$"
1^"
#692500000
0)
0S
0$"
0^"
#695000000
1)
b10001011 R
1S
1$"
1^"
#697500000
0)
0S
0$"
0^"
#700000000
1)
b10001100 R
1S
1$"
1^"
#702500000
0)
0S
0$"
0^"
#705000000
1)
b10001101 R
1S
1$"
1^"
#707500000
0)
0S
0$"
0^"
#710000000
1)
b10001110 R
1S
1$"
1^"
#712500000
0)
0S
0$"
0^"
#715000000
1)
b10001111 R
1S
1$"
1^"
#717500000
0)
0S
0$"
0^"
#720000000
1)
b10010000 R
1S
1$"
1^"
#722500000
0)
0S
0$"
0^"
#725000000
1)
b10010001 R
1S
1$"
1^"
#727500000
0)
0S
0$"
0^"
#730000000
1)
b10010010 R
1S
1$"
1^"
#732500000
0)
0S
0$"
0^"
#735000000
1)
b10010011 R
1S
1$"
1^"
#737500000
0)
0S
0$"
0^"
#740000000
1)
b10010100 R
1S
1$"
1^"
#742500000
0)
0S
0$"
0^"
#745000000
1)
b10010101 R
1S
1$"
1^"
#747500000
0)
0S
0$"
0^"
#750000000
1)
b10010110 R
1S
1$"
1^"
#752500000
0)
0S
0$"
0^"
#755000000
1)
b10010111 R
1S
1$"
1^"
#757500000
0)
0S
0$"
0^"
#760000000
1)
b10011000 R
1S
1$"
1^"
#762500000
0)
0S
0$"
0^"
#765000000
1)
b10011001 R
1S
1$"
1^"
#767500000
0)
0S
0$"
0^"
#770000000
1)
b10011010 R
1S
1$"
1^"
#772500000
0)
0S
0$"
0^"
#775000000
1)
b10011011 R
1S
1$"
1^"
#777500000
0)
0S
0$"
0^"
#780000000
1)
b10011100 R
1S
1$"
1^"
#782500000
0)
0S
0$"
0^"
#785000000
1)
b10011101 R
1S
1$"
1^"
#787500000
0)
0S
0$"
0^"
#790000000
1)
b10011110 R
1S
1$"
1^"
#792500000
0)
0S
0$"
0^"
#795000000
1)
b10011111 R
1S
1$"
1^"
#797500000
0)
0S
0$"
0^"
#800000000
1)
b10100000 R
1S
1$"
1^"
#802500000
0)
0S
0$"
0^"
#805000000
1)
b10100001 R
1S
1$"
1^"
#807500000
0)
0S
0$"
0^"
#810000000
1)
b10100010 R
1S
1$"
1^"
#812500000
0)
0S
0$"
0^"
#815000000
1)
b10100011 R
1S
1$"
1^"
#817500000
0)
0S
0$"
0^"
#820000000
1)
b10100100 R
1S
1$"
1^"
#822500000
0)
0S
0$"
0^"
#825000000
1)
b10100101 R
1S
1$"
1^"
#827500000
0)
0S
0$"
0^"
#830000000
1)
b10100110 R
1S
1$"
1^"
#832500000
0)
0S
0$"
0^"
#835000000
1)
b10100111 R
1S
1$"
1^"
#837500000
0)
0S
0$"
0^"
#840000000
1)
b10101000 R
1S
1$"
1^"
#842500000
0)
0S
0$"
0^"
#845000000
1)
b10101001 R
1S
1$"
1^"
#847500000
0)
0S
0$"
0^"
#850000000
1)
b10101010 R
1S
1$"
1^"
#852500000
0)
0S
0$"
0^"
#855000000
1)
b10101011 R
1S
1$"
1^"
#857500000
0)
0S
0$"
0^"
#860000000
1)
b10101100 R
1S
1$"
1^"
#862500000
0)
0S
0$"
0^"
#865000000
1)
b10101101 R
1S
1$"
1^"
#867500000
0)
0S
0$"
0^"
#870000000
1)
b10101110 R
1S
1$"
1^"
#872500000
0)
0S
0$"
0^"
#875000000
1)
b10101111 R
1S
1$"
1^"
#877500000
0)
0S
0$"
0^"
#880000000
1)
b10110000 R
1S
1$"
1^"
#882500000
0)
0S
0$"
0^"
#885000000
1)
b10110001 R
1S
1$"
1^"
#887500000
0)
0S
0$"
0^"
#890000000
1)
b10110010 R
1S
1$"
1^"
#892500000
0)
0S
0$"
0^"
#895000000
1)
b10110011 R
1S
1$"
1^"
#897500000
0)
0S
0$"
0^"
#900000000
1)
b10110100 R
1S
1$"
1^"
#902500000
0)
0S
0$"
0^"
#905000000
1)
b10110101 R
1S
1$"
1^"
#907500000
0)
0S
0$"
0^"
#910000000
1)
b10110110 R
1S
1$"
1^"
#912500000
0)
0S
0$"
0^"
#915000000
1)
b10110111 R
1S
1$"
1^"
#917500000
0)
0S
0$"
0^"
#920000000
1)
b10111000 R
1S
1$"
1^"
#922500000
0)
0S
0$"
0^"
#925000000
1)
b10111001 R
1S
1$"
1^"
#927500000
0)
0S
0$"
0^"
#930000000
1)
b10111010 R
1S
1$"
1^"
#932500000
0)
0S
0$"
0^"
#935000000
1)
b10111011 R
1S
1$"
1^"
#937500000
0)
0S
0$"
0^"
#940000000
1)
b10111100 R
1S
1$"
1^"
#942500000
0)
0S
0$"
0^"
#945000000
1)
b10111101 R
1S
1$"
1^"
#947500000
0)
0S
0$"
0^"
#950000000
1)
b10111110 R
1S
1$"
1^"
#952500000
0)
0S
0$"
0^"
#955000000
1)
b10111111 R
1S
1$"
1^"
#957500000
0)
0S
0$"
0^"
#960000000
1)
b11000000 R
1S
1$"
1^"
#962500000
0)
0S
0$"
0^"
#965000000
1)
b11000001 R
1S
1$"
1^"
#967500000
0)
0S
0$"
0^"
