ghdl/axis/wave.vcd
$date
  Fri Apr 21 10:06:02 2023
$end
$version
  GHDL v0
$end
$timescale
  1 fs
$end
$scope module standard $end
$upscope $end
$scope module std_logic_1164 $end
$upscope $end
$scope module numeric_std $end
$upscope $end
$scope module tb_axis $end
$var reg 1 ! sim_valid_data $end
$var reg 1 " sim_ready_data $end
$var reg 8 # sim_data[7:0] $end
$var reg 1 $ s_axis_tvalid $end
$var reg 8 % s_axis_tdata[7:0] $end
$var reg 1 & s_axis_tstrb[0:0] $end
$var reg 1 ' s_axis_tlast $end
$var reg 1 ( s_axis_tready $end
$var reg 1 ) m_axis_tvalid $end
$var reg 8 * m_axis_tdata[7:0] $end
$var reg 1 + m_axis_tstrb[0:0] $end
$var reg 1 , m_axis_tlast $end
$var reg 1 - m_axis_tready $end
$var reg 1 . clk $end
$var reg 1 / rst_n $end
$var reg 8 0 clk_count[7:0] $end
$scope module skidbuffer_inst $end
$var reg 1 1 axis_aclk $end
$var reg 1 2 axis_aresetn $end
$var reg 1 3 s_axis_tvalid $end
$var reg 8 4 s_axis_tdata[7:0] $end
$var reg 1 5 s_axis_tstrb[0:0] $end
$var reg 1 6 s_axis_tlast $end
$var reg 1 7 s_axis_tready $end
$var reg 1 8 m_axis_tvalid $end
$var reg 8 9 m_axis_tdata[7:0] $end
$var reg 1 : m_axis_tstrb[0:0] $end
$var reg 1 ; m_axis_tlast $end
$var reg 1 < m_axis_tready $end
$var reg 1 = aclk $end
$var reg 1 > aresetn $end
$var reg 1 ? i_s_axis_tvalid $end
$var reg 8 @ i_s_axis_tdata[7:0] $end
$var reg 9 A i_axis_data_strb[8:0] $end
$var reg 1 B i_s_axis_tstrb[0:0] $end
$var reg 1 C i_s_axis_tlast $end
$var reg 1 D o_s_axis_tready $end
$var reg 1 E o_m_axis_tvalid $end
$var reg 8 F o_m_axis_tdata[7:0] $end
$var reg 9 G o_axis_data_strb[8:0] $end
$var reg 1 H o_m_axis_tstrb[0:0] $end
$var reg 1 I o_m_axis_tlast $end
$var reg 1 J i_m_axis_tready $end
$scope module skidbuffer_inst $end
$var reg 1 K clock $end
$var reg 1 L reset_n $end
$var reg 1 M s_valid_i $end
$var reg 1 N s_last_i $end
$var reg 1 O s_ready_o $end
$var reg 9 P s_data_i[8:0] $end
$var reg 1 Q m_valid_o $end
$var reg 1 R m_last_o $end
$var reg 1 S m_ready_i $end
$var reg 9 T m_data_o[8:0] $end
$var reg 9 U reg_data[8:0] $end
$var reg 1 V reg_last $end
$var reg 1 W reg_valid $end
$var reg 1 X reg_ready $end
$var reg 9 Y skd_data[8:0] $end
$var reg 1 Z skd_last $end
$var reg 9 [ out_data[8:0] $end
$var reg 1 \ out_last $end
$scope module gen_data_register $end
$upscope $end
$upscope $end
$upscope $end
$upscope $end
$enddefinitions $end
#0
0!
1"
bUUUUUUUU #
0$
bUUUUUUUU %
bU &
U'
U(
U)
bUUUUUUUU *
bU +
U,
0-
1.
0/
b00000000 0
11
02
03
bUUUUUUUU 4
bU 5
U6
U7
U8
bUUUUUUUU 9
bU :
U;
0<
1=
0>
0?
bUUUUUUUU @
bUUUUUUUUU A
bU B
UC
UD
UE
bUUUUUUUU F
bUUUUUUUUU G
bU H
UI
0J
1K
0L
0M
UN
UO
bUUUUUUUUU P
UQ
UR
0S
bUUUUUUUUU T
bUUUUUUUUU U
UV
UW
UX
bUUUUUUUUU Y
UZ
bUUUUUUUUU [
U\
#2500000
0.
01
0=
0K
#5000000
b00000000 #
b00000000 %
b0 &
0'
0(
0)
b00000000 *
b0 +
0,
1-
1.
b00000001 0
11
b00000000 4
b0 5
06
07
08
b00000000 9
b0 :
0;
1<
1=
b00000000 @
b000000000 A
b0 B
0C
0D
0E
b00000000 F
b000000000 G
b0 H
0I
1J
1K
0N
0O
b000000000 P
0Q
0R
1S
b000000000 T
b000000000 U
0V
0W
0X
b000000000 Y
0Z
b000000000 [
0\
#6250000
1/
12
1>
1L
#7500000
0.
01
0=
0K
#10000000
1!
1(
1.
b00000010 0
11
17
1=
1D
1K
1O
1X
#12500000
0.
01
0=
0K
#15000000
b00000001 #
1$
b00000001 %
b1 &
1.
b00000011 0
11
13
b00000001 4
b1 5
1=
1?
b00000001 @
b000000011 A
b1 B
1K
1M
b000000011 P
#17500000
0.
01
0=
0K
#20000000
b00000010 #
b00000010 %
1)
b00000001 *
b1 +
1.
b00000100 0
11
b00000010 4
18
b00000001 9
b1 :
1=
b00000010 @
b000000101 A
1E
b00000001 F
b000000011 G
b1 H
1K
b000000101 P
1Q
b000000011 T
b000000011 U
1W
b000000011 Y
b000000011 [
#22500000
0.
01
0=
0K
#25000000
b00000011 #
b00000011 %
b00000010 *
1.
b00000101 0
11
b00000011 4
b00000010 9
1=
b00000011 @
b000000111 A
b00000010 F
b000000101 G
1K
b000000111 P
b000000101 T
b000000101 U
b000000101 Y
b000000101 [
#27500000
0.
01
0=
0K
#30000000
b00000100 #
b00000100 %
1'
b00000011 *
1.
b00000110 0
11
b00000100 4
16
b00000011 9
1=
b00000100 @
b000001001 A
1C
b00000011 F
b000000111 G
1K
1N
b000001001 P
b000000111 T
b000000111 U
b000000111 Y
b000000111 [
#32500000
0.
01
0=
0K
#35000000
0"
b00000001 #
b00000001 %
0'
b00000100 *
1,
1.
b00000111 0
11
b00000001 4
06
b00000100 9
1;
1=
b00000001 @
b000000011 A
0C
b00000100 F
b000001001 G
1I
1K
0N
b000000011 P
1R
b000001001 T
b000001001 U
1V
b000001001 Y
1Z
b000001001 [
1\
#37500000
0.
01
0=
0K
#40000000
1"
b00000010 #
b00000010 %
b00000001 *
0,
0-
1.
b00001000 0
11
b00000010 4
b00000001 9
0;
0<
1=
b00000010 @
b000000101 A
b00000001 F
b000000011 G
0I
0J
1K
b000000101 P
0R
0S
b000000011 T
b000000011 U
0V
b000000011 Y
0Z
b000000011 [
0\
#42500000
0.
01
0=
0K
#45000000
b00000011 #
b00000011 %
0(
1-
1.
b00001001 0
11
b00000011 4
07
1<
1=
b00000011 @
b000000111 A
0D
1J
1K
0O
b000000111 P
1S
0X
b000000101 Y
#47500000
0.
01
0=
0K
#50000000
1(
b00000010 *
1.
b00001010 0
11
17
b00000010 9
1=
1D
b00000010 F
b000000101 G
1K
1O
b000000101 T
b000000101 U
1X
b000000101 [
#52500000
0.
01
0=
0K
#55000000
0"
b00000100 #
b00000100 %
1'
b00000011 *
1.
b00001011 0
11
b00000100 4
16
b00000011 9
1=
b00000100 @
b000001001 A
1C
b00000011 F
b000000111 G
1K
1N
b000001001 P
b000000111 T
b000000111 U
b000000111 Y
b000000111 [
#57500000
0.
01
0=
0K
#60000000
b00000001 #
b00000001 %
0'
b00000100 *
1,
0-
1.
b00001100 0
11
b00000001 4
06
b00000100 9
1;
0<
1=
b00000001 @
b000000011 A
0C
b00000100 F
b000001001 G
1I
0J
1K
0N
b000000011 P
1R
0S
b000001001 T
b000001001 U
1V
b000001001 Y
1Z
b000001001 [
1\
#62500000
0.
01
0=
0K
#65000000
1"
b00000010 #
b00000010 %
0(
1.
b00001101 0
11
b00000010 4
07
1=
b00000010 @
b000000101 A
0D
1K
0O
b000000101 P
0X
b000000011 Y
0Z
#67500000
0.
01
0=
0K
#70000000
0"
1-
1.
b00001110 0
11
1<
1=
1J
1K
1S
#72500000
0.
01
0=
0K
#75000000
1"
1(
b00000001 *
0,
0-
1.
b00001111 0
11
17
b00000001 9
0;
0<
1=
1D
b00000001 F
b000000011 G
0I
0J
1K
1O
0R
0S
b000000011 T
b000000011 U
0V
1X
b000000011 [
0\
#77500000
0.
01
0=
0K
#80000000
b00000011 #
b00000011 %
0(
1-
1.
b00010000 0
11
b00000011 4
07
1<
1=
b00000011 @
b000000111 A
0D
1J
1K
0O
b000000111 P
1S
0X
b000000101 Y
#82500000
0.
01
0=
0K
#85000000
1(
b00000010 *
1.
b00010001 0
11
17
b00000010 9
1=
1D
b00000010 F
b000000101 G
1K
1O
b000000101 T
b000000101 U
1X
b000000101 [
#87500000
0.
01
0=
0K
#90000000
0!
b00000100 #
b00000100 %
1'
b00000011 *
1.
b00010010 0
11
b00000100 4
16
b00000011 9
1=
b00000100 @
b000001001 A
1C
b00000011 F
b000000111 G
1K
1N
b000001001 P
b000000111 T
b000000111 U
b000000111 Y
b000000111 [
#92500000
0.
01
0=
0K
#95000000
0$
b00000000 %
b0 &
0'
b00000100 *
1,
1.
b00010011 0
11
03
b00000000 4
b0 5
06
b00000100 9
1;
1=
0?
b00000000 @
b000000000 A
b0 B
0C
b00000100 F
b000001001 G
1I
1K
0M
0N
b000000000 P
1R
b000001001 T
b000001001 U
1V
b000001001 Y
1Z
b000001001 [
1\
#97500000
0.
01
0=
0K
#100000000
0)
b00000000 *
b0 +
0,
1.
b00010100 0
11
08
b00000000 9
b0 :
0;
1=
0E
b00000000 F
b000000000 G
b0 H
0I
1K
0Q
0R
b000000000 T
b000000000 U
0V
0W
b000000000 Y
0Z
b000000000 [
0\
#102500000
0.
01
0=
0K
#105000000
1!
1.
b00010101 0
11
1=
1K
#107500000
0.
01
0=
0K
#110000000
b00000001 #
1$
b00000001 %
b1 &
1.
b00010110 0
11
13
b00000001 4
b1 5
1=
1?
b00000001 @
b000000011 A
b1 B
1K
1M
b000000011 P
#112500000
0.
01
0=
0K
#115000000
0!
b00000010 #
b00000010 %
1)
b00000001 *
b1 +
1.
b00010111 0
11
b00000010 4
18
b00000001 9
b1 :
1=
b00000010 @
b000000101 A
1E
b00000001 F
b000000011 G
b1 H
1K
b000000101 P
1Q
b000000011 T
b000000011 U
1W
b000000011 Y
b000000011 [
#117500000
0.
01
0=
0K
#120000000
1!
0$
b00000000 %
b0 &
b00000010 *
1.
b00011000 0
11
03
b00000000 4
b0 5
b00000010 9
1=
0?
b00000000 @
b000000000 A
b0 B
b00000010 F
b000000101 G
1K
0M
b000000000 P
b000000101 T
b000000101 U
b000000101 Y
b000000101 [
#122500000
0.
01
0=
0K
#125000000
b00000011 #
1$
b00000011 %
b1 &
0)
b00000000 *
b0 +
1.
b00011001 0
11
13
b00000011 4
b1 5
08
b00000000 9
b0 :
1=
1?
b00000011 @
b000000111 A
b1 B
0E
b00000000 F
b000000000 G
b0 H
1K
1M
b000000111 P
0Q
b000000000 T
b000000000 U
0W
b000000000 Y
b000000000 [
#127500000
0.
01
0=
0K
#130000000
0!
b00000100 #
b00000100 %
1'
1)
b00000011 *
b1 +
1.
b00011010 0
11
b00000100 4
16
18
b00000011 9
b1 :
1=
b00000100 @
b000001001 A
1C
1E
b00000011 F
b000000111 G
b1 H
1K
1N
b000001001 P
1Q
b000000111 T
b000000111 U
1W
b000000111 Y
b000000111 [
#132500000
0.
01
0=
0K
#135000000
0$
b00000000 %
b0 &
0'
b00000100 *
1,
1.
b00011011 0
11
03
b00000000 4
b0 5
06
b00000100 9
1;
1=
0?
b00000000 @
b000000000 A
b0 B
0C
b00000100 F
b000001001 G
1I
1K
0M
0N
b000000000 P
1R
b000001001 T
b000001001 U
1V
b000001001 Y
1Z
b000001001 [
1\
#137500000
0.
01
0=
0K
#140000000
0)
b00000000 *
b0 +
0,
1.
b00011100 0
11
08
b00000000 9
b0 :
0;
1=
0E
b00000000 F
b000000000 G
b0 H
0I
1K
0Q
0R
b000000000 T
b000000000 U
0V
0W
b000000000 Y
0Z
b000000000 [
0\
#142500000
0.
01
0=
0K
#145000000
1.
b00011101 0
11
1=
1K
#147500000
0.
01
0=
0K
#150000000
1.
b00011110 0
11
1=
1K
#152500000
0.
01
0=
0K
#155000000
1.
b00011111 0
11
1=
1K
#157500000
0.
01
0=
0K
#160000000
1.
b00100000 0
11
1=
1K
#162500000
0.
01
0=
0K
#165000000
1.
b00100001 0
11
1=
1K
#167500000
0.
01
0=
0K
#170000000
1.
b00100010 0
11
1=
1K
#172500000
0.
01
0=
0K
#175000000
1.
b00100011 0
11
1=
1K
#177500000
0.
01
0=
0K
#180000000
1.
b00100100 0
11
1=
1K
#182500000
0.
01
0=
0K
#185000000
1.
b00100101 0
11
1=
1K
#187500000
0.
01
0=
0K
#190000000
1.
b00100110 0
11
1=
1K
#192500000
0.
01
0=
0K
#195000000
1.
b00100111 0
11
1=
1K
#197500000
0.
01
0=
0K
#200000000
1.
b00101000 0
11
1=
1K
#202500000
0.
01
0=
0K
#205000000
1.
b00101001 0
11
1=
1K
#207500000
0.
01
0=
0K
#210000000
1.
b00101010 0
11
1=
1K
#212500000
0.
01
0=
0K
#215000000
1.
b00101011 0
11
1=
1K
#217500000
0.
01
0=
0K
#220000000
1.
b00101100 0
11
1=
1K
#222500000
0.
01
0=
0K
#225000000
1.
b00101101 0
11
1=
1K
#227500000
0.
01
0=
0K
#230000000
1.
b00101110 0
11
1=
1K
#232500000
0.
01
0=
0K
#235000000
1.
b00101111 0
11
1=
1K
#237500000
0.
01
0=
0K
#240000000
1.
b00110000 0
11
1=
1K
#242500000
0.
01
0=
0K
#245000000
1.
b00110001 0
11
1=
1K
#247500000
0.
01
0=
0K
#250000000
1.
b00110010 0
11
1=
1K
#252500000
0.
01
0=
0K
#255000000
1.
b00110011 0
11
1=
1K
#257500000
0.
01
0=
0K
#260000000
1.
b00110100 0
11
1=
1K
#262500000
0.
01
0=
0K
#265000000
1.
b00110101 0
11
1=
1K
#267500000
0.
01
0=
0K
#270000000
1.
b00110110 0
11
1=
1K
#272500000
0.
01
0=
0K
#275000000
1.
b00110111 0
11
1=
1K
#277500000
0.
01
0=
0K
#280000000
1.
b00111000 0
11
1=
1K
#282500000
0.
01
0=
0K
#285000000
1.
b00111001 0
11
1=
1K
#287500000
0.
01
0=
0K
#290000000
1.
b00111010 0
11
1=
1K
#292500000
0.
01
0=
0K
#295000000
1.
b00111011 0
11
1=
1K
#297500000
0.
01
0=
0K
#300000000
1.
b00111100 0
11
1=
1K
#302500000
0.
01
0=
0K
#305000000
1.
b00111101 0
11
1=
1K
#307500000
0.
01
0=
0K
#310000000
1.
b00111110 0
11
1=
1K
#312500000
0.
01
0=
0K
#315000000
1.
b00111111 0
11
1=
1K
#317500000
0.
01
0=
0K
#320000000
1.
b01000000 0
11
1=
1K
#322500000
0.
01
0=
0K
#325000000
1.
b01000001 0
11
1=
1K
#327500000
0.
01
0=
0K
#330000000
1.
b01000010 0
11
1=
1K
#332500000
0.
01
0=
0K
#335000000
1.
b01000011 0
11
1=
1K
#337500000
0.
01
0=
0K
#340000000
1.
b01000100 0
11
1=
1K
#342500000
0.
01
0=
0K
#345000000
1.
b01000101 0
11
1=
1K
#347500000
0.
01
0=
0K
#350000000
1.
b01000110 0
11
1=
1K
#352500000
0.
01
0=
0K
#355000000
1.
b01000111 0
11
1=
1K
#357500000
0.
01
0=
0K
#360000000
1.
b01001000 0
11
1=
1K
#362500000
0.
01
0=
0K
#365000000
1.
b01001001 0
11
1=
1K
#367500000
0.
01
0=
0K
#370000000
1.
b01001010 0
11
1=
1K
#372500000
0.
01
0=
0K
#375000000
1.
b01001011 0
11
1=
1K
#377500000
0.
01
0=
0K
#380000000
1.
b01001100 0
11
1=
1K
#382500000
0.
01
0=
0K
#385000000
1.
b01001101 0
11
1=
1K
#387500000
0.
01
0=
0K
#390000000
1.
b01001110 0
11
1=
1K
#392500000
0.
01
0=
0K
#395000000
1.
b01001111 0
11
1=
1K
#397500000
0.
01
0=
0K
#400000000
1.
b01010000 0
11
1=
1K
#402500000
0.
01
0=
0K
#405000000
1.
b01010001 0
11
1=
1K
#407500000
0.
01
0=
0K
#410000000
1.
b01010010 0
11
1=
1K
#412500000
0.
01
0=
0K
#415000000
1.
b01010011 0
11
1=
1K
#417500000
0.
01
0=
0K
#420000000
1.
b01010100 0
11
1=
1K
#422500000
0.
01
0=
0K
#425000000
1.
b01010101 0
11
1=
1K
#427500000
0.
01
0=
0K
#430000000
1.
b01010110 0
11
1=
1K
#432500000
0.
01
0=
0K
#435000000
1.
b01010111 0
11
1=
1K
#437500000
0.
01
0=
0K
#440000000
1.
b01011000 0
11
1=
1K
#442500000
0.
01
0=
0K
#445000000
1.
b01011001 0
11
1=
1K
#447500000
0.
01
0=
0K
#450000000
1.
b01011010 0
11
1=
1K
#452500000
0.
01
0=
0K
#455000000
1.
b01011011 0
11
1=
1K
#457500000
0.
01
0=
0K
#460000000
1.
b01011100 0
11
1=
1K
#462500000
0.
01
0=
0K
#465000000
1.
b01011101 0
11
1=
1K
#467500000
0.
01
0=
0K
#470000000
1.
b01011110 0
11
1=
1K
#472500000
0.
01
0=
0K
#475000000
1.
b01011111 0
11
1=
1K
#477500000
0.
01
0=
0K
#480000000
1.
b01100000 0
11
1=
1K
#482500000
0.
01
0=
0K
#485000000
1.
b01100001 0
11
1=
1K
#487500000
0.
01
0=
0K
#490000000
1.
b01100010 0
11
1=
1K
#492500000
0.
01
0=
0K
#495000000
1.
b01100011 0
11
1=
1K
#497500000
0.
01
0=
0K
#500000000
1.
b01100100 0
11
1=
1K
#502500000
0.
01
0=
0K
#505000000
1.
b01100101 0
11
1=
1K
#507500000
0.
01
0=
0K
#510000000
1.
b01100110 0
11
1=
1K
#512500000
0.
01
0=
0K
#515000000
1.
b01100111 0
11
1=
1K
#517500000
0.
01
0=
0K
#520000000
1.
b01101000 0
11
1=
1K
#522500000
0.
01
0=
0K
#525000000
1.
b01101001 0
11
1=
1K
#527500000
0.
01
0=
0K
#530000000
1.
b01101010 0
11
1=
1K
#532500000
0.
01
0=
0K
#535000000
1.
b01101011 0
11
1=
1K
#537500000
0.
01
0=
0K
#540000000
1.
b01101100 0
11
1=
1K
#542500000
0.
01
0=
0K
#545000000
1.
b01101101 0
11
1=
1K
#547500000
0.
01
0=
0K
#550000000
1.
b01101110 0
11
1=
1K
#552500000
0.
01
0=
0K
#555000000
1.
b01101111 0
11
1=
1K
#557500000
0.
01
0=
0K
#560000000
1.
b01110000 0
11
1=
1K
#562500000
0.
01
0=
0K
#565000000
1.
b01110001 0
11
1=
1K
#567500000
0.
01
0=
0K
#570000000
1.
b01110010 0
11
1=
1K
#572500000
0.
01
0=
0K
#575000000
1.
b01110011 0
11
1=
1K
#577500000
0.
01
0=
0K
#580000000
1.
b01110100 0
11
1=
1K
#582500000
0.
01
0=
0K
#585000000
1.
b01110101 0
11
1=
1K
#587500000
0.
01
0=
0K
#590000000
1.
b01110110 0
11
1=
1K
#592500000
0.
01
0=
0K
#595000000
1.
b01110111 0
11
1=
1K
#597500000
0.
01
0=
0K
#600000000
1.
b01111000 0
11
1=
1K
#602500000
0.
01
0=
0K
#605000000
1.
b01111001 0
11
1=
1K
#607500000
0.
01
0=
0K
#610000000
1.
b01111010 0
11
1=
1K
#612500000
0.
01
0=
0K
#615000000
1.
b01111011 0
11
1=
1K
#617500000
0.
01
0=
0K
#620000000
1.
b01111100 0
11
1=
1K
#622500000
0.
01
0=
0K
#625000000
1.
b01111101 0
11
1=
1K
#627500000
0.
01
0=
0K
#630000000
1.
b01111110 0
11
1=
1K
#632500000
0.
01
0=
0K
#635000000
1.
b01111111 0
11
1=
1K
#637500000
0.
01
0=
0K
#640000000
1.
b10000000 0
11
1=
1K
#642500000
0.
01
0=
0K
#645000000
1.
b10000001 0
11
1=
1K
#647500000
0.
01
0=
0K
#650000000
1.
b10000010 0
11
1=
1K
#652500000
0.
01
0=
0K
#655000000
1.
b10000011 0
11
1=
1K
#657500000
0.
01
0=
0K
#660000000
1.
b10000100 0
11
1=
1K
#662500000
0.
01
0=
0K
#665000000
1.
b10000101 0
11
1=
1K
#667500000
0.
01
0=
0K
#670000000
1.
b10000110 0
11
1=
1K
#672500000
0.
01
0=
0K
#675000000
1.
b10000111 0
11
1=
1K
#677500000
0.
01
0=
0K
#680000000
1.
b10001000 0
11
1=
1K
#682500000
0.
01
0=
0K
#685000000
1.
b10001001 0
11
1=
1K
#687500000
0.
01
0=
0K
#690000000
1.
b10001010 0
11
1=
1K
#692500000
0.
01
0=
0K
#695000000
1.
b10001011 0
11
1=
1K
#697500000
0.
01
0=
0K
#700000000
1.
b10001100 0
11
1=
1K
#702500000
0.
01
0=
0K
#705000000
1.
b10001101 0
11
1=
1K
#707500000
0.
01
0=
0K
#710000000
1.
b10001110 0
11
1=
1K
#712500000
0.
01
0=
0K
#715000000
1.
b10001111 0
11
1=
1K
#717500000
0.
01
0=
0K
#720000000
1.
b10010000 0
11
1=
1K
#722500000
0.
01
0=
0K
#725000000
1.
b10010001 0
11
1=
1K
#727500000
0.
01
0=
0K
#730000000
1.
b10010010 0
11
1=
1K
#732500000
0.
01
0=
0K
#735000000
1.
b10010011 0
11
1=
1K
#737500000
0.
01
0=
0K
#740000000
1.
b10010100 0
11
1=
1K
#742500000
0.
01
0=
0K
#745000000
1.
b10010101 0
11
1=
1K
#747500000
0.
01
0=
0K
#750000000
1.
b10010110 0
11
1=
1K
#752500000
0.
01
0=
0K
#755000000
1.
b10010111 0
11
1=
1K
#757500000
0.
01
0=
0K
#760000000
1.
b10011000 0
11
1=
1K
#762500000
0.
01
0=
0K
#765000000
1.
b10011001 0
11
1=
1K
#767500000
0.
01
0=
0K
#770000000
1.
b10011010 0
11
1=
1K
#772500000
0.
01
0=
0K
#775000000
1.
b10011011 0
11
1=
1K
#777500000
0.
01
0=
0K
#780000000
1.
b10011100 0
11
1=
1K
#782500000
0.
01
0=
0K
#785000000
1.
b10011101 0
11
1=
1K
#787500000
0.
01
0=
0K
#790000000
1.
b10011110 0
11
1=
1K
#792500000
0.
01
0=
0K
#795000000
1.
b10011111 0
11
1=
1K
#797500000
0.
01
0=
0K
#800000000
1.
b10100000 0
11
1=
1K
#802500000
0.
01
0=
0K
#805000000
1.
b10100001 0
11
1=
1K
#807500000
0.
01
0=
0K
#810000000
1.
b10100010 0
11
1=
1K
#812500000
0.
01
0=
0K
#815000000
1.
b10100011 0
11
1=
1K
#817500000
0.
01
0=
0K
#820000000
1.
b10100100 0
11
1=
1K
#822500000
0.
01
0=
0K
#825000000
1.
b10100101 0
11
1=
1K
#827500000
0.
01
0=
0K
#830000000
1.
b10100110 0
11
1=
1K
#832500000
0.
01
0=
0K
#835000000
1.
b10100111 0
11
1=
1K
#837500000
0.
01
0=
0K
#840000000
1.
b10101000 0
11
1=
1K
#842500000
0.
01
0=
0K
#845000000
1.
b10101001 0
11
1=
1K
#847500000
0.
01
0=
0K
#850000000
1.
b10101010 0
11
1=
1K
#852500000
0.
01
0=
0K
#855000000
1.
b10101011 0
11
1=
1K
#857500000
0.
01
0=
0K
#860000000
1.
b10101100 0
11
1=
1K
#862500000
0.
01
0=
0K
#865000000
1.
b10101101 0
11
1=
1K
#867500000
0.
01
0=
0K
#870000000
1.
b10101110 0
11
1=
1K
#872500000
0.
01
0=
0K
#875000000
1.
b10101111 0
11
1=
1K
#877500000
0.
01
0=
0K
#880000000
1.
b10110000 0
11
1=
1K
#882500000
0.
01
0=
0K
#885000000
1.
b10110001 0
11
1=
1K
#887500000
0.
01
0=
0K
#890000000
1.
b10110010 0
11
1=
1K
#892500000
0.
01
0=
0K
#895000000
1.
b10110011 0
11
1=
1K
#897500000
0.
01
0=
0K
#900000000
1.
b10110100 0
11
1=
1K
#902500000
0.
01
0=
0K
#905000000
1.
b10110101 0
11
1=
1K
#907500000
0.
01
0=
0K
#910000000
1.
b10110110 0
11
1=
1K
#912500000
0.
01
0=
0K
#915000000
1.
b10110111 0
11
1=
1K
#917500000
0.
01
0=
0K
#920000000
1.
b10111000 0
11
1=
1K
#922500000
0.
01
0=
0K
#925000000
1.
b10111001 0
11
1=
1K
#927500000
0.
01
0=
0K
#930000000
1.
b10111010 0
11
1=
1K
#932500000
0.
01
0=
0K
#935000000
1.
b10111011 0
11
1=
1K
#937500000
0.
01
0=
0K
#940000000
1.
b10111100 0
11
1=
1K
#942500000
0.
01
0=
0K
#945000000
1.
b10111101 0
11
1=
1K
#947500000
0.
01
0=
0K
#950000000
1.
b10111110 0
11
1=
1K
#952500000
0.
01
0=
0K
#955000000
1.
b10111111 0
11
1=
1K
#957500000
0.
01
0=
0K
#960000000
1.
b11000000 0
11
1=
1K
#962500000
0.
01
0=
0K
#965000000
1.
b11000001 0
11
1=
1K
#967500000
0.
01
0=
0K
#970000000
1.
b11000010 0
11
1=
1K
#972500000
0.
01
0=
0K
#975000000
1.
b11000011 0
11
1=
1K
#977500000
0.
01
0=
0K
#980000000
1.
b11000100 0
11
1=
1K
#982500000
0.
01
0=
0K
#985000000
1.
b11000101 0
11
1=
1K
#987500000
0.
01
0=
0K
#990000000
1.
b11000110 0
11
1=
1K
#992500000
0.
01
0=
0K
#995000000
1.
b11000111 0
11
1=
1K
#997500000
0.
01
0=
0K
#1000000000
1.
b11001000 0
11
1=
1K
